(export (version D)
  (design
    (source /home/strelok/kicad_projects/oscil/oscil.sch)
    (date "Ср 19 апр 2017 20:23:11")
    (tool "Eeschema 4.0.4+e1-6308~48~ubuntu16.04.1-stable")
    (sheet (number 1) (name /) (tstamps /)
      (title_block
        (title)
        (company)
        (rev)
        (date)
        (source oscil.sch)
        (comment (number 1) (value ""))
        (comment (number 2) (value ""))
        (comment (number 3) (value ""))
        (comment (number 4) (value "")))))
  (components
    (comp (ref U2)
      (value AD8066)
      (footprint Housings_SOIC:SOIC-8_3.9x4.9mm_Pitch1.27mm)
      (libsource (lib oscil-rescue) (part LM358-RESCUE-oscil))
      (sheetpath (names /) (tstamps /))
      (tstamp 5874F681))
    (comp (ref U3)
      (value STM32F303CBTx)
      (footprint Housings_QFP:LQFP-48_7x7mm_Pitch0.5mm)
      (libsource (lib stm32) (part STM32F303CBTx))
      (sheetpath (names /) (tstamps /))
      (tstamp 5874F8CD))
    (comp (ref IC_ADC1)
      (value ADS828E)
      (footprint Housings_SSOP:SSOP-28_5.3x10.2mm_Pitch0.65mm)
      (libsource (lib ads828e) (part ADS828E))
      (sheetpath (names /) (tstamps /))
      (tstamp 5874FA7B))
    (comp (ref U1)
      (value AMS1117-3.3)
      (footprint TO_SOT_Packages_SMD:SOT-223)
      (datasheet "Sot223/Pkg 1-Amp 3.3-Volt Low Drop Out Voltage Regulatator")
      (fields
        (field (name Price) None)
        (field (name MF) "Advanced Monolithic Systems")
        (field (name MP) AMS1117-3.3)
        (field (name Package) None)
        (field (name Availability) Unavailable))
      (libsource (lib AMS1117-3.3) (part AMS1117-3.3))
      (sheetpath (names /) (tstamps /))
      (tstamp 5874FCB7))
    (comp (ref Y1)
      (value Crystal)
      (footprint Crystals:Crystal_HC49-U_Vertical)
      (libsource (lib oscil-cache) (part Crystal))
      (sheetpath (names /) (tstamps /))
      (tstamp 58751F4B))
    (comp (ref C3)
      (value 22pF)
      (footprint Capacitors_SMD:C_0805_HandSoldering)
      (libsource (lib oscil-rescue) (part C-RESCUE-oscil))
      (sheetpath (names /) (tstamps /))
      (tstamp 58752112))
    (comp (ref C4)
      (value 22pF)
      (footprint Capacitors_SMD:C_0805_HandSoldering)
      (libsource (lib oscil-rescue) (part C-RESCUE-oscil))
      (sheetpath (names /) (tstamps /))
      (tstamp 587521E5))
    (comp (ref C2)
      (value 100nF)
      (footprint Capacitors_SMD:C_0805_HandSoldering)
      (libsource (lib oscil-rescue) (part C-RESCUE-oscil))
      (sheetpath (names /) (tstamps /))
      (tstamp 58752FA7))
    (comp (ref C1)
      (value 100nF)
      (footprint Capacitors_SMD:C_0805_HandSoldering)
      (libsource (lib oscil-rescue) (part C-RESCUE-oscil))
      (sheetpath (names /) (tstamps /))
      (tstamp 58753048))
    (comp (ref C7)
      (value 100nF)
      (footprint Capacitors_SMD:C_0805_HandSoldering)
      (libsource (lib oscil-rescue) (part C-RESCUE-oscil))
      (sheetpath (names /) (tstamps /))
      (tstamp 5876CF3A))
    (comp (ref L1)
      (value 100uH)
      (footprint Resistors_ThroughHole:Resistor_Horizontal_RM10mm)
      (libsource (lib device) (part INDUCTOR))
      (sheetpath (names /) (tstamps /))
      (tstamp 5876EF99))
    (comp (ref R1)
      (value 30R)
      (footprint Resistors_SMD:R_0603_HandSoldering)
      (libsource (lib oscil-rescue) (part R-RESCUE-oscil))
      (sheetpath (names /) (tstamps /))
      (tstamp 5876FBF8))
    (comp (ref R5)
      (value 470)
      (footprint Resistors_SMD:R_0603_HandSoldering)
      (libsource (lib oscil-rescue) (part R-RESCUE-oscil))
      (sheetpath (names /) (tstamps /))
      (tstamp 587707A5))
    (comp (ref R6)
      (value 470)
      (footprint Resistors_SMD:R_0603_HandSoldering)
      (libsource (lib oscil-rescue) (part R-RESCUE-oscil))
      (sheetpath (names /) (tstamps /))
      (tstamp 587709E8))
    (comp (ref R2)
      (value 270)
      (footprint Resistors_SMD:R_0603_HandSoldering)
      (libsource (lib oscil-rescue) (part R-RESCUE-oscil))
      (sheetpath (names /) (tstamps /))
      (tstamp 58771268))
    (comp (ref R4)
      (value 1k)
      (footprint Resistors_SMD:R_0603_HandSoldering)
      (libsource (lib oscil-rescue) (part R-RESCUE-oscil))
      (sheetpath (names /) (tstamps /))
      (tstamp 58772D60))
    (comp (ref JP2)
      (value PINHD-1X2)
      (footprint Pin_Headers:Pin_Header_Straight_1x02)
      (libsource (lib pinhead) (part PINHD-1X2))
      (sheetpath (names /) (tstamps /))
      (tstamp 5877A4E8))
    (comp (ref JP1)
      (value PINHD-1X2)
      (footprint Pin_Headers:Pin_Header_Straight_1x02)
      (libsource (lib pinhead) (part PINHD-1X2))
      (sheetpath (names /) (tstamps /))
      (tstamp 587796E3))
    (comp (ref P1)
      (value BNC)
      (footprint BNC2:BNC2)
      (libsource (lib device) (part BNC))
      (sheetpath (names /) (tstamps /))
      (tstamp 5878F1D0))
    (comp (ref Q1)
      (value FET_P)
      (footprint TO_SOT_Packages_THT:TO-92_Rugged)
      (libsource (lib device) (part FET_P))
      (sheetpath (names /) (tstamps /))
      (tstamp 5878F352))
    (comp (ref R9)
      (value 47k)
      (footprint Resistors_SMD:R_0603_HandSoldering)
      (libsource (lib oscil-rescue) (part R-RESCUE-oscil))
      (sheetpath (names /) (tstamps /))
      (tstamp 5878FA83))
    (comp (ref R7)
      (value 50R)
      (footprint Resistors_SMD:R_0603_HandSoldering)
      (libsource (lib oscil-rescue) (part R-RESCUE-oscil))
      (sheetpath (names /) (tstamps /))
      (tstamp 58791DEC))
    (comp (ref R12)
      (value 1.5k)
      (footprint Resistors_SMD:R_0603_HandSoldering)
      (libsource (lib oscil-rescue) (part R-RESCUE-oscil))
      (sheetpath (names /) (tstamps /))
      (tstamp 58796B18))
    (comp (ref R11)
      (value 22R)
      (footprint Resistors_SMD:R_0603_HandSoldering)
      (libsource (lib oscil-rescue) (part R-RESCUE-oscil))
      (sheetpath (names /) (tstamps /))
      (tstamp 5879AC76))
    (comp (ref R10)
      (value 22R)
      (footprint Resistors_SMD:R_0603_HandSoldering)
      (libsource (lib oscil-rescue) (part R-RESCUE-oscil))
      (sheetpath (names /) (tstamps /))
      (tstamp 5879AD43))
    (comp (ref C14)
      (value 100nF)
      (footprint Capacitors_SMD:C_0805_HandSoldering)
      (libsource (lib oscil-rescue) (part C-RESCUE-oscil))
      (sheetpath (names /) (tstamps /))
      (tstamp 5879DB22))
    (comp (ref C15)
      (value 100uF)
      (footprint Capacitors_ThroughHole:C_Radial_D5_L6_P2.5)
      (libsource (lib oscil-rescue) (part CP-RESCUE-oscil))
      (sheetpath (names /) (tstamps /))
      (tstamp 5879EAD9))
    (comp (ref C8)
      (value 100uF)
      (footprint Capacitors_ThroughHole:C_Radial_D5_L6_P2.5)
      (libsource (lib oscil-rescue) (part CP-RESCUE-oscil))
      (sheetpath (names /) (tstamps /))
      (tstamp 5879F908))
    (comp (ref C12)
      (value 100uF)
      (footprint Capacitors_ThroughHole:C_Radial_D5_L6_P2.5)
      (libsource (lib oscil-rescue) (part CP-RESCUE-oscil))
      (sheetpath (names /) (tstamps /))
      (tstamp 587A0B06))
    (comp (ref C9)
      (value 100nF)
      (footprint Capacitors_SMD:C_0805_HandSoldering)
      (libsource (lib oscil-rescue) (part C-RESCUE-oscil))
      (sheetpath (names /) (tstamps /))
      (tstamp 587A15BC))
    (comp (ref C10)
      (value 100nF)
      (footprint Capacitors_SMD:C_0805_HandSoldering)
      (libsource (lib oscil-rescue) (part C-RESCUE-oscil))
      (sheetpath (names /) (tstamps /))
      (tstamp 587A1DF9))
    (comp (ref C11)
      (value 100nF)
      (footprint Capacitors_SMD:C_0805_HandSoldering)
      (libsource (lib oscil-rescue) (part C-RESCUE-oscil))
      (sheetpath (names /) (tstamps /))
      (tstamp 587A1F37))
    (comp (ref C13)
      (value 100nF)
      (footprint Capacitors_SMD:C_0805_HandSoldering)
      (libsource (lib oscil-rescue) (part C-RESCUE-oscil))
      (sheetpath (names /) (tstamps /))
      (tstamp 587A6BB7))
    (comp (ref R13)
      (value 10k)
      (footprint Resistors_SMD:R_0603_HandSoldering)
      (libsource (lib oscil-rescue) (part R-RESCUE-oscil))
      (sheetpath (names /) (tstamps /))
      (tstamp 587A7E6A))
    (comp (ref S1)
      (value DTS-6)
      (footprint switch-tact:switch-tact-DTS-6)
      (libsource (lib switch-tact) (part DTS-6))
      (sheetpath (names /) (tstamps /))
      (tstamp 587AAD5B))
    (comp (ref TFT1)
      (value TFT2_4)
      (footprint tft_2:TFT_2_4_Adafruit)
      (libsource (lib tft2_4) (part TFT2_4))
      (sheetpath (names /) (tstamps /))
      (tstamp 587B222E))
    (comp (ref JP3)
      (value PINHD-1X2)
      (footprint Pin_Headers:Pin_Header_Straight_1x02)
      (libsource (lib pinhead) (part PINHD-1X2))
      (sheetpath (names /) (tstamps /))
      (tstamp 587C3CEA))
    (comp (ref S2)
      (value DTS-6)
      (footprint switch-tact:switch-tact-DTS-6)
      (libsource (lib switch-tact) (part DTS-6))
      (sheetpath (names /) (tstamps /))
      (tstamp 587FF2FA))
    (comp (ref S3)
      (value DTS-6)
      (footprint switch-tact:switch-tact-DTS-6)
      (libsource (lib switch-tact) (part DTS-6))
      (sheetpath (names /) (tstamps /))
      (tstamp 58800054))
    (comp (ref S4)
      (value DTS-6)
      (footprint switch-tact:switch-tact-DTS-6)
      (libsource (lib switch-tact) (part DTS-6))
      (sheetpath (names /) (tstamps /))
      (tstamp 5880081A))
    (comp (ref S5)
      (value DTS-6)
      (footprint switch-tact:switch-tact-DTS-6)
      (libsource (lib switch-tact) (part DTS-6))
      (sheetpath (names /) (tstamps /))
      (tstamp 58800FF0))
    (comp (ref IC1)
      (value LT1054)
      (footprint Housings_SOIC:SOIC-8_3.9x4.9mm_Pitch1.27mm)
      (libsource (lib lt1054) (part LT1054))
      (sheetpath (names /) (tstamps /))
      (tstamp 5885635D))
    (comp (ref C5)
      (value 100uF)
      (footprint Capacitors_ThroughHole:C_Radial_D5_L6_P2.5)
      (libsource (lib oscil-rescue) (part CP-RESCUE-oscil))
      (sheetpath (names /) (tstamps /))
      (tstamp 58858A93))
    (comp (ref C6)
      (value 100uF)
      (footprint Capacitors_ThroughHole:C_Radial_D5_L6_P2.5)
      (libsource (lib oscil-rescue) (part CP-RESCUE-oscil))
      (sheetpath (names /) (tstamps /))
      (tstamp 5885B633))
    (comp (ref R16)
      (value 47k)
      (footprint Resistors_SMD:R_0603_HandSoldering)
      (libsource (lib oscil-rescue) (part R-RESCUE-oscil))
      (sheetpath (names /) (tstamps /))
      (tstamp 5885D897))
    (comp (ref C19)
      (value 100nF)
      (footprint Capacitors_SMD:C_0805_HandSoldering)
      (libsource (lib oscil-rescue) (part C-RESCUE-oscil))
      (sheetpath (names /) (tstamps /))
      (tstamp 58866044))
    (comp (ref D1)
      (value DIODESCH)
      (footprint Diodes_SMD:SOD-123)
      (libsource (lib device) (part DIODESCH))
      (sheetpath (names /) (tstamps /))
      (tstamp 5887057A))
    (comp (ref D2)
      (value ZENER)
      (footprint Diodes_ThroughHole:Diode_DO-35_SOD27_Horizontal_RM10)
      (libsource (lib device) (part ZENER))
      (sheetpath (names /) (tstamps /))
      (tstamp 58871C15))
    (comp (ref J1)
      (value USB_2)
      (footprint mini_usb:con-usb-2-USB-M-S1)
      (fields
        (field (name VCC) VCC)
        (field (name Data+) D+)
        (field (name Data-) D-)
        (field (name Ground) GND))
      (libsource (lib conn) (part USB_2))
      (sheetpath (names /) (tstamps /))
      (tstamp 5877AEA2))
    (comp (ref C17)
      (value 20pF)
      (footprint Capacitors_SMD:C_0805_HandSoldering)
      (libsource (lib oscil-rescue) (part C-RESCUE-oscil))
      (sheetpath (names /) (tstamps /))
      (tstamp 587C0EE9))
    (comp (ref R8)
      (value 1k)
      (footprint Resistors_SMD:R_0603_HandSoldering)
      (libsource (lib oscil-rescue) (part R-RESCUE-oscil))
      (sheetpath (names /) (tstamps /))
      (tstamp 5878F705)))
  (libparts
    (libpart (lib ads828e) (part ADS828E)
      (fields
        (field (name Reference) IC_ADC)
        (field (name Value) ADS828E))
      (pins
        (pin (num 1) (name GND) (type input))
        (pin (num 2) (name "BIT_1(MSB)") (type output))
        (pin (num 3) (name BIT_2) (type output))
        (pin (num 4) (name BIT_3) (type output))
        (pin (num 5) (name BIT_4) (type output))
        (pin (num 6) (name BIT_5) (type output))
        (pin (num 7) (name BIT_6) (type output))
        (pin (num 8) (name BIT_7) (type output))
        (pin (num 9) (name BIT_8) (type output))
        (pin (num 10) (name BIT_9) (type output))
        (pin (num 11) (name "BIT_10(LSB)") (type output))
        (pin (num 12) (name OE) (type input))
        (pin (num 13) (name PD) (type input))
        (pin (num 14) (name CLK) (type input))
        (pin (num 15) (name V+) (type input))
        (pin (num 16) (name GND) (type input))
        (pin (num 17) (name RSEL) (type input))
        (pin (num 18) (name INT/EXT) (type input))
        (pin (num 19) (name REFB) (type input))
        (pin (num 20) (name BYB) (type input))
        (pin (num 21) (name BYT) (type input))
        (pin (num 22) (name REFT) (type input))
        (pin (num 23) (name CM) (type output))
        (pin (num 24) (name IN_INV) (type input))
        (pin (num 25) (name IN) (type input))
        (pin (num 26) (name GND) (type input))
        (pin (num 27) (name V+) (type input))
        (pin (num 28) (name VDRV) (type output))))
    (libpart (lib AMS1117-3.3) (part AMS1117-3.3)
      (fields
        (field (name Reference) U)
        (field (name Value) AMS1117-3.3)
        (field (name Footprint) SOT-223)
        (field (name Datasheet) "Sot223/Pkg 1-Amp 3.3-Volt Low Drop Out Voltage Regulatator")
        (field (name Price) None)
        (field (name MF) "Advanced Monolithic Systems")
        (field (name MP) AMS1117-3.3)
        (field (name Package) None)
        (field (name Availability) Unavailable))
      (pins
        (pin (num 1) (name GND) (type passive))
        (pin (num 2) (name OUT) (type output))
        (pin (num 3) (name IN) (type input))
        (pin (num 4) (name GND) (type passive))))
    (libpart (lib device) (part BNC)
      (fields
        (field (name Reference) P)
        (field (name Value) BNC))
      (pins
        (pin (num 1) (name In) (type passive))
        (pin (num 2) (name Ext) (type passive))))
    (libpart (lib oscil-rescue) (part C-RESCUE-oscil)
      (footprints
        (fp C?)
        (fp C_????_*)
        (fp C_????)
        (fp SMD*_c)
        (fp Capacitor*))
      (fields
        (field (name Reference) C)
        (field (name Value) C-RESCUE-oscil))
      (pins
        (pin (num 1) (name ~) (type passive))
        (pin (num 2) (name ~) (type passive))))
    (libpart (lib oscil-rescue) (part CP-RESCUE-oscil)
      (footprints
        (fp CP*)
        (fp Elko*)
        (fp TantalC*)
        (fp C*elec)
        (fp c_elec*)
        (fp SMD*_Pol))
      (fields
        (field (name Reference) C)
        (field (name Value) CP-RESCUE-oscil))
      (pins
        (pin (num 1) (name ~) (type passive))
        (pin (num 2) (name ~) (type passive))))
    (libpart (lib oscil-cache) (part Crystal)
      (footprints
        (fp Crystal_*))
      (fields
        (field (name Reference) Y)
        (field (name Value) Crystal))
      (pins
        (pin (num 1) (name 1) (type passive))
        (pin (num 2) (name 2) (type passive))))
    (libpart (lib device) (part DIODESCH)
      (footprints
        (fp D?)
        (fp S*))
      (fields
        (field (name Reference) D)
        (field (name Value) DIODESCH))
      (pins
        (pin (num 1) (name A) (type passive))
        (pin (num 2) (name K) (type passive))))
    (libpart (lib switch-tact) (part DTS-6)
      (fields
        (field (name Reference) S)
        (field (name Value) DTS-6)
        (field (name Footprint) switch-tact-DTS-6))
      (pins
        (pin (num 1) (name 1) (type passive))
        (pin (num 2) (name 2) (type passive))
        (pin (num 3) (name 3) (type passive))
        (pin (num 4) (name 4) (type passive))))
    (libpart (lib device) (part FET_P)
      (fields
        (field (name Reference) Q)
        (field (name Value) FET_P))
      (pins
        (pin (num 1) (name S) (type passive))
        (pin (num 2) (name D) (type passive))
        (pin (num 3) (name G) (type input))))
    (libpart (lib device) (part INDUCTOR)
      (fields
        (field (name Reference) L)
        (field (name Value) INDUCTOR))
      (pins
        (pin (num 1) (name 1) (type passive))
        (pin (num 2) (name 2) (type passive))))
    (libpart (lib oscil-rescue) (part LM358-RESCUE-oscil)
      (fields
        (field (name Reference) U)
        (field (name Value) LM358-RESCUE-oscil))
      (pins
        (pin (num 1) (name ~) (type output))
        (pin (num 2) (name -) (type input))
        (pin (num 3) (name +) (type input))
        (pin (num 4) (name V-) (type power_in))
        (pin (num 5) (name +) (type input))
        (pin (num 6) (name -) (type input))
        (pin (num 7) (name ~) (type output))
        (pin (num 8) (name V+) (type power_in))))
    (libpart (lib lt1054) (part LT1054)
      (fields
        (field (name Reference) IC)
        (field (name Value) LT1054))
      (pins
        (pin (num 1) (name BOOST) (type BiDi))
        (pin (num 2) (name CAP+) (type BiDi))
        (pin (num 3) (name GND) (type BiDi))
        (pin (num 4) (name CAP-) (type BiDi))
        (pin (num 5) (name VOUT) (type BiDi))
        (pin (num 6) (name LV) (type BiDi))
        (pin (num 7) (name OSC) (type BiDi))
        (pin (num 8) (name V+) (type BiDi))))
    (libpart (lib pinhead) (part PINHD-1X2)
      (fields
        (field (name Reference) JP)
        (field (name Value) PINHD-1X2)
        (field (name Footprint) pinhead-1X02))
      (pins
        (pin (num 1) (name 1) (type passive))
        (pin (num 2) (name 2) (type passive))))
    (libpart (lib oscil-rescue) (part R-RESCUE-oscil)
      (footprints
        (fp R_*)
        (fp Resistor_*))
      (fields
        (field (name Reference) R)
        (field (name Value) R-RESCUE-oscil))
      (pins
        (pin (num 1) (name ~) (type passive))
        (pin (num 2) (name ~) (type passive))))
    (libpart (lib stm32) (part STM32F303CBTx)
      (aliases
        (alias STM32F303CCTx))
      (fields
        (field (name Reference) U)
        (field (name Value) STM32F303CBTx)
        (field (name Footprint) LQFP48))
      (pins
        (pin (num 1) (name VBAT) (type power_in))
        (pin (num 2) (name PC13/RTC_OUT_ALARM/RTC_OUT_CALIB/RTC_TAMP1/RTC_TS/SYS_WKUP2/TIM1_CH1N) (type BiDi))
        (pin (num 3) (name PC14/RCC_OSC32_IN) (type BiDi))
        (pin (num 4) (name PC15/ADC1_EXTI15/ADC2_EXTI15/RCC_OSC32_OUT) (type BiDi))
        (pin (num 5) (name PF0/I2C2_SDA/RCC_OSC_IN/TIM1_CH3N) (type input))
        (pin (num 6) (name PF1/I2C2_SCL/RCC_OSC_OUT) (type input))
        (pin (num 7) (name NRST) (type input))
        (pin (num 8) (name VSSA) (type power_in))
        (pin (num 9) (name VDDA) (type power_in))
        (pin (num 10) (name ADC1_IN1/COMP1_INM/COMP1_OUT/COMP7_INP/RTC_TAMP2/SYS_WKUP1/TIM2_CH1/TIM2_ETR/TIM8_BKIN/TIM8_ETR/TSC_G1_IO1/USART2_CTS/PA0) (type BiDi))
        (pin (num 11) (name ADC1_IN2/COMP1_INP/OPAMP1_VINP/OPAMP1_VINP_SEC/OPAMP3_VINP/OPAMP3_VINP_SEC/RTC_REFIN/TIM15_CH1N/TIM2_CH2/TSC_G1_IO2/USART2_DE/USART2_RTS/PA1) (type BiDi))
        (pin (num 12) (name ADC1_IN3/ADC3_EXTI2/ADC4_EXTI2/COMP2_INM/COMP2_OUT/OPAMP1_VOUT/TIM15_CH1/TIM2_CH3/TSC_G1_IO3/USART2_TX/PA2) (type BiDi))
        (pin (num 13) (name ADC1_IN4/COMP2_INP/OPAMP1_VINM/OPAMP1_VINM_SEC/OPAMP1_VINP/OPAMP1_VINP_SEC/TIM15_CH2/TIM2_CH4/TSC_G1_IO4/USART2_RX/PA3) (type BiDi))
        (pin (num 14) (name ADC2_IN1/COMP1_INM/COMP2_INM/COMP3_INM/COMP4_INM/COMP5_INM/COMP6_INM/COMP7_INM/DAC_OUT1/I2S3_WS/OPAMP4_VINP/OPAMP4_VINP_SEC/SPI1_NSS/SPI3_NSS/TIM3_CH2/TSC_G2_IO1/USART2_CK/PA4) (type BiDi))
        (pin (num 15) (name ADC2_IN2/COMP1_INM/COMP2_INM/COMP3_INM/COMP4_INM/COMP5_INM/COMP6_INM/COMP7_INM/DAC_OUT2/OPAMP1_VINP/OPAMP1_VINP_SEC/OPAMP2_VINM/OPAMP2_VINM_SEC/OPAMP3_VINP/OPAMP3_VINP_SEC/SPI1_SCK/TIM2_CH1/TIM2_ETR/TSC_G2_IO2/PA5) (type BiDi))
        (pin (num 16) (name ADC2_IN3/COMP1_OUT/OPAMP2_VOUT/SPI1_MISO/TIM16_CH1/TIM1_BKIN/TIM3_CH1/TIM8_BKIN/TSC_G2_IO3/PA6) (type BiDi))
        (pin (num 17) (name ADC2_IN4/COMP2_INP/COMP2_OUT/OPAMP1_VINP/OPAMP1_VINP_SEC/OPAMP2_VINP/OPAMP2_VINP_SEC/SPI1_MOSI/TIM17_CH1/TIM1_CH1N/TIM3_CH2/TIM8_CH1N/TSC_G2_IO4/PA7) (type BiDi))
        (pin (num 18) (name PB0/ADC3_IN12/COMP4_INP/OPAMP2_VINP/OPAMP2_VINP_SEC/OPAMP3_VINP/OPAMP3_VINP_SEC/TIM1_CH2N/TIM3_CH3/TIM8_CH2N/TSC_G3_IO2) (type BiDi))
        (pin (num 19) (name PB1/ADC3_IN1/COMP4_OUT/OPAMP3_VOUT/TIM1_CH3N/TIM3_CH4/TIM8_CH3N/TSC_G3_IO3) (type BiDi))
        (pin (num 20) (name PB2/ADC2_IN12/ADC3_EXTI2/ADC4_EXTI2/COMP4_INM/OPAMP3_VINM/OPAMP3_VINM_SEC/TSC_G3_IO4) (type BiDi))
        (pin (num 21) (name PB10/COMP5_INM/OPAMP3_VINM/OPAMP3_VINM_SEC/OPAMP4_VINM/OPAMP4_VINM_SEC/TIM2_CH3/TSC_SYNC/USART3_TX) (type BiDi))
        (pin (num 22) (name PB11/ADC1_EXTI11/ADC2_EXTI11/COMP6_INP/OPAMP4_VINP/OPAMP4_VINP_SEC/TIM2_CH4/TSC_G6_IO1/USART3_RX) (type BiDi))
        (pin (num 23) (name VSS) (type power_in))
        (pin (num 24) (name VDD) (type power_in))
        (pin (num 25) (name PB12/ADC4_IN3/COMP3_INM/I2C2_SMBA/I2S2_WS/OPAMP4_VOUT/SPI2_NSS/TIM1_BKIN/TSC_G6_IO2/USART3_CK) (type BiDi))
        (pin (num 26) (name PB13/ADC3_IN5/COMP5_INP/I2S2_CK/OPAMP3_VINP/OPAMP3_VINP_SEC/OPAMP4_VINP/OPAMP4_VINP_SEC/SPI2_SCK/TIM1_CH1N/TSC_G6_IO3/USART3_CTS) (type BiDi))
        (pin (num 27) (name PB14/ADC4_IN4/COMP3_INP/I2S2_ext_SD/OPAMP2_VINP/OPAMP2_VINP_SEC/SPI2_MISO/TIM15_CH1/TIM1_CH2N/TSC_G6_IO4/USART3_DE/USART3_RTS) (type BiDi))
        (pin (num 28) (name PB15/ADC1_EXTI15/ADC2_EXTI15/ADC4_IN5/COMP6_INM/I2S2_SD/RTC_REFIN/SPI2_MOSI/TIM15_CH1N/TIM15_CH2/TIM1_CH3N) (type BiDi))
        (pin (num 29) (name COMP3_OUT/I2C2_SMBA/I2S2_MCK/RCC_MCO/TIM1_CH1/TIM4_ETR/USART1_CK/PA8) (type BiDi))
        (pin (num 30) (name COMP5_OUT/DAC_EXTI9/I2C2_SCL/I2S3_MCK/TIM15_BKIN/TIM1_CH2/TIM2_CH3/TSC_G4_IO1/USART1_TX/PA9) (type BiDi))
        (pin (num 31) (name COMP6_OUT/I2C2_SDA/TIM17_BKIN/TIM1_CH3/TIM2_CH4/TIM8_BKIN/TSC_G4_IO2/USART1_RX/PA10) (type BiDi))
        (pin (num 32) (name ADC1_EXTI11/ADC2_EXTI11/CAN_RX/COMP1_OUT/TIM1_BKIN2/TIM1_CH1N/TIM1_CH4/TIM4_CH1/USART1_CTS/USB_DM/PA11) (type BiDi))
        (pin (num 33) (name CAN_TX/COMP2_OUT/TIM16_CH1/TIM1_CH2N/TIM1_ETR/TIM4_CH2/USART1_DE/USART1_RTS/USB_DP/PA12) (type BiDi))
        (pin (num 34) (name IR_OUT/SYS_JTMS-SWDIO/TIM16_CH1N/TIM4_CH3/TSC_G4_IO3/USART3_CTS/PA13) (type BiDi))
        (pin (num 35) (name VSS) (type power_in))
        (pin (num 36) (name VDD) (type power_in))
        (pin (num 37) (name I2C1_SDA/SYS_JTCK-SWCLK/TIM1_BKIN/TIM8_CH2/TSC_G4_IO4/USART2_TX/PA14) (type BiDi))
        (pin (num 38) (name ADC1_EXTI15/ADC2_EXTI15/I2C1_SCL/I2S3_WS/SPI1_NSS/SPI3_NSS/SYS_JTDI/TIM1_BKIN/TIM2_CH1/TIM2_ETR/TIM8_CH1/USART2_RX/PA15) (type BiDi))
        (pin (num 39) (name PB3/I2S3_CK/SPI1_SCK/SPI3_SCK/SYS_JTDO-TRACESWO/TIM2_CH2/TIM3_ETR/TIM4_ETR/TIM8_CH1N/TSC_G5_IO1/USART2_TX) (type BiDi))
        (pin (num 40) (name PB4/I2S3_ext_SD/SPI1_MISO/SPI3_MISO/SYS_NJTRST/TIM16_CH1/TIM17_BKIN/TIM3_CH1/TIM8_CH2N/TSC_G5_IO2/USART2_RX) (type BiDi))
        (pin (num 41) (name PB5/I2C1_SMBA/I2S3_SD/SPI1_MOSI/SPI3_MOSI/TIM16_BKIN/TIM17_CH1/TIM3_CH2/TIM8_CH3N/USART2_CK) (type BiDi))
        (pin (num 42) (name PB6/I2C1_SCL/TIM16_CH1N/TIM4_CH1/TIM8_BKIN2/TIM8_CH1/TIM8_ETR/TSC_G5_IO3/USART1_TX) (type BiDi))
        (pin (num 43) (name PB7/I2C1_SDA/TIM17_CH1N/TIM3_CH4/TIM4_CH2/TIM8_BKIN/TSC_G5_IO4/USART1_RX) (type BiDi))
        (pin (num 44) (name BOOT0) (type input))
        (pin (num 45) (name PB8/CAN_RX/COMP1_OUT/I2C1_SCL/TIM16_CH1/TIM1_BKIN/TIM4_CH3/TIM8_CH2/TSC_SYNC) (type BiDi))
        (pin (num 46) (name PB9/CAN_TX/COMP2_OUT/DAC_EXTI9/I2C1_SDA/IR_OUT/TIM17_CH1/TIM4_CH4/TIM8_CH3) (type BiDi))
        (pin (num 47) (name VSS) (type power_in))
        (pin (num 48) (name VDD) (type power_in))))
    (libpart (lib tft2_4) (part TFT2_4)
      (fields
        (field (name Reference) TFT)
        (field (name Value) TFT2_4))
      (pins
        (pin (num 1) (name RESET) (type BiDi))
        (pin (num 2) (name 3V) (type BiDi))
        (pin (num 3) (name 5V) (type BiDi))
        (pin (num 4) (name GNG) (type BiDi))
        (pin (num 5) (name GND) (type BiDi))
        (pin (num 7) (name LCD_RD) (type BiDi))
        (pin (num 8) (name LCD_WR) (type BiDi))
        (pin (num 9) (name LCD_RS) (type BiDi))
        (pin (num 10) (name LCD_CS) (type BiDi))
        (pin (num 11) (name LCD_RST) (type BiDi))
        (pin (num 15) (name LCD_D2) (type BiDi))
        (pin (num 16) (name LCD_D3) (type BiDi))
        (pin (num 17) (name LCD_D4) (type BiDi))
        (pin (num 18) (name LCD_D5) (type BiDi))
        (pin (num 19) (name LCD_D6) (type BiDi))
        (pin (num 20) (name LCD_D7) (type BiDi))
        (pin (num 21) (name LCD_D0) (type BiDi))
        (pin (num 22) (name LCD_D1) (type BiDi))
        (pin (num 23) (name SD_SS) (type BiDi))
        (pin (num 24) (name SD_DI) (type BiDi))
        (pin (num 25) (name SD_DO) (type BiDi))
        (pin (num 26) (name SD_SCK) (type BiDi))))
    (libpart (lib conn) (part USB_2)
      (fields
        (field (name Reference) J)
        (field (name Value) USB_2))
      (pins
        (pin (num 1) (name VCC) (type input))
        (pin (num 2) (name D-) (type input))
        (pin (num 3) (name D+) (type input))
        (pin (num 4) (name ID) (type input))
        (pin (num 5) (name GND) (type input))))
    (libpart (lib device) (part ZENER)
      (footprints
        (fp D?)
        (fp SO*)
        (fp SM*))
      (fields
        (field (name Reference) D)
        (field (name Value) ZENER))
      (pins
        (pin (num 1) (name A) (type passive))
        (pin (num 2) (name K) (type passive)))))
  (libraries
    (library (logical oscil-rescue)
      (uri /home/strelok/kicad_projects/oscil/oscil-rescue.lib))
    (library (logical device)
      (uri /var/projects/kikad_libs/schematic-file-converter/upconvert/library/kicad/parts/device.lib))
    (library (logical conn)
      (uri /var/projects/kikad_libs/schematic-file-converter/upconvert/library/kicad/parts/conn.lib))
    (library (logical lt1054)
      (uri /home/strelok/kicad_projects/lt1054.lib))
    (library (logical ads828e)
      (uri /home/strelok/kicad_projects/ADS828E_board/ads828e.lib))
    (library (logical stm32)
      (uri /var/projects/stm32/kikad/stm32.lib))
    (library (logical AMS1117-3.3)
      (uri /home/strelok/kicad_projects/AMS1117-3.3.lib))
    (library (logical pinhead)
      (uri /var/projects/kikad_libs/schematic-file-converter/upconvert/library/kicad/parts/pinhead.lib))
    (library (logical switch-tact)
      (uri /var/projects/kikad_libs/schematic-file-converter/upconvert/library/kicad/parts/switch-tact.lib))
    (library (logical oscil-cache)
      (uri /home/strelok/kicad_projects/oscil/oscil-cache.lib))
    (library (logical tft2_4)
      (uri /home/strelok/kicad_projects/tft2_4.lib)))
  (nets
    (net (code 1) (name "Net-(C4-Pad1)")
      (node (ref C4) (pin 1))
      (node (ref Y1) (pin 2))
      (node (ref U3) (pin 6)))
    (net (code 2) (name GND)
      (node (ref C3) (pin 2))
      (node (ref U1) (pin 1))
      (node (ref IC_ADC1) (pin 18))
      (node (ref C1) (pin 2))
      (node (ref C2) (pin 2))
      (node (ref C4) (pin 2))
      (node (ref Q1) (pin 1))
      (node (ref C8) (pin 2))
      (node (ref R5) (pin 1))
      (node (ref R4) (pin 2))
      (node (ref P1) (pin 2))
      (node (ref C15) (pin 2))
      (node (ref C14) (pin 2))
      (node (ref C13) (pin 2))
      (node (ref C11) (pin 2))
      (node (ref C10) (pin 2))
      (node (ref C9) (pin 2))
      (node (ref C12) (pin 2))
      (node (ref U3) (pin 8))
      (node (ref R13) (pin 2))
      (node (ref IC_ADC1) (pin 1))
      (node (ref C7) (pin 1))
      (node (ref U3) (pin 47))
      (node (ref IC_ADC1) (pin 26))
      (node (ref IC_ADC1) (pin 16))
      (node (ref IC_ADC1) (pin 13))
      (node (ref U3) (pin 35))
      (node (ref U3) (pin 23))
      (node (ref JP3) (pin 2))
      (node (ref JP3) (pin 1))
      (node (ref TFT1) (pin 5))
      (node (ref S1) (pin 2))
      (node (ref S1) (pin 1))
      (node (ref C19) (pin 2))
      (node (ref D1) (pin 1))
      (node (ref C6) (pin 1))
      (node (ref R16) (pin 2))
      (node (ref S2) (pin 4))
      (node (ref S3) (pin 4))
      (node (ref S4) (pin 4))
      (node (ref S5) (pin 4))
      (node (ref IC1) (pin 3))
      (node (ref J1) (pin 5))
      (node (ref C17) (pin 2))
      (node (ref D2) (pin 1)))
    (net (code 3) (name "Net-(R1-Pad1)")
      (node (ref U2) (pin 1))
      (node (ref R1) (pin 1))
      (node (ref R2) (pin 2)))
    (net (code 4) (name "Net-(JP2-Pad1)")
      (node (ref U3) (pin 30))
      (node (ref JP2) (pin 1)))
    (net (code 5) (name "Net-(JP1-Pad1)")
      (node (ref JP1) (pin 1))
      (node (ref U3) (pin 34)))
    (net (code 6) (name "Net-(JP1-Pad2)")
      (node (ref JP1) (pin 2))
      (node (ref U3) (pin 37)))
    (net (code 7) (name "Net-(C7-Pad2)")
      (node (ref C7) (pin 2))
      (node (ref IC_ADC1) (pin 23))
      (node (ref IC_ADC1) (pin 24)))
    (net (code 8) (name "Net-(R2-Pad1)")
      (node (ref R6) (pin 1))
      (node (ref R5) (pin 2))
      (node (ref R2) (pin 1))
      (node (ref U2) (pin 2)))
    (net (code 9) (name +5V)
      (node (ref IC_ADC1) (pin 17))
      (node (ref IC_ADC1) (pin 27))
      (node (ref IC1) (pin 8))
      (node (ref IC_ADC1) (pin 28))
      (node (ref U1) (pin 3))
      (node (ref C8) (pin 1))
      (node (ref J1) (pin 1))
      (node (ref IC_ADC1) (pin 15))
      (node (ref C1) (pin 1))
      (node (ref U2) (pin 8))
      (node (ref TFT1) (pin 3)))
    (net (code 10) (name -5V)
      (node (ref IC1) (pin 5))
      (node (ref R6) (pin 2))
      (node (ref U2) (pin 4))
      (node (ref C6) (pin 2)))
    (net (code 11) (name "Net-(IC1-Pad7)")
      (node (ref IC1) (pin 7)))
    (net (code 12) (name "Net-(IC1-Pad6)")
      (node (ref IC1) (pin 6)))
    (net (code 13) (name "Net-(IC1-Pad1)")
      (node (ref IC1) (pin 1)))
    (net (code 14) (name "Net-(C19-Pad1)")
      (node (ref C19) (pin 1))
      (node (ref R7) (pin 1))
      (node (ref Q1) (pin 3)))
    (net (code 15) (name "Net-(S3-Pad3)")
      (node (ref S3) (pin 3)))
    (net (code 16) (name "Net-(S4-Pad3)")
      (node (ref S4) (pin 3)))
    (net (code 17) (name /LCD_RD)
      (node (ref U3) (pin 10))
      (node (ref TFT1) (pin 7)))
    (net (code 18) (name "Net-(S5-Pad3)")
      (node (ref S5) (pin 3)))
    (net (code 19) (name "Net-(C5-Pad1)")
      (node (ref IC1) (pin 2))
      (node (ref C5) (pin 1)))
    (net (code 20) (name "Net-(C5-Pad2)")
      (node (ref C5) (pin 2))
      (node (ref IC1) (pin 4)))
    (net (code 21) (name "Net-(TFT1-Pad4)")
      (node (ref TFT1) (pin 4)))
    (net (code 22) (name "Net-(J1-Pad4)")
      (node (ref J1) (pin 4)))
    (net (code 23) (name "Net-(IC_ADC1-Pad22)")
      (node (ref IC_ADC1) (pin 22)))
    (net (code 24) (name "Net-(IC_ADC1-Pad19)")
      (node (ref IC_ADC1) (pin 19)))
    (net (code 25) (name "Net-(Q1-Pad2)")
      (node (ref Q1) (pin 2))
      (node (ref R8) (pin 2)))
    (net (code 26) (name "Net-(S1-Pad4)")
      (node (ref S1) (pin 4)))
    (net (code 27) (name "Net-(U1-Pad4)")
      (node (ref U1) (pin 4)))
    (net (code 28) (name /SW2)
      (node (ref S3) (pin 2))
      (node (ref S3) (pin 1))
      (node (ref U3) (pin 11)))
    (net (code 29) (name "Net-(C17-Pad1)")
      (node (ref D1) (pin 2))
      (node (ref D2) (pin 2))
      (node (ref R1) (pin 2))
      (node (ref IC_ADC1) (pin 25))
      (node (ref C17) (pin 1)))
    (net (code 30) (name /SW1)
      (node (ref S2) (pin 1))
      (node (ref S2) (pin 2))
      (node (ref U3) (pin 28)))
    (net (code 31) (name /SW3)
      (node (ref S4) (pin 2))
      (node (ref S4) (pin 1))
      (node (ref U3) (pin 12)))
    (net (code 32) (name /LCD_D1)
      (node (ref U3) (pin 15))
      (node (ref TFT1) (pin 22)))
    (net (code 33) (name "Net-(J1-Pad3)")
      (node (ref R12) (pin 1))
      (node (ref J1) (pin 3))
      (node (ref R11) (pin 2)))
    (net (code 34) (name /SW4)
      (node (ref U3) (pin 13))
      (node (ref S5) (pin 1))
      (node (ref S5) (pin 2)))
    (net (code 35) (name "Net-(JP2-Pad2)")
      (node (ref JP2) (pin 2))
      (node (ref U3) (pin 31)))
    (net (code 36) (name "Net-(R11-Pad1)")
      (node (ref R11) (pin 1))
      (node (ref U3) (pin 33)))
    (net (code 37) (name "Net-(R10-Pad1)")
      (node (ref U3) (pin 32))
      (node (ref R10) (pin 1)))
    (net (code 38) (name "Net-(S2-Pad3)")
      (node (ref S2) (pin 3)))
    (net (code 39) (name "Net-(R16-Pad1)")
      (node (ref U2) (pin 5))
      (node (ref R9) (pin 1))
      (node (ref R8) (pin 1))
      (node (ref R16) (pin 1)))
    (net (code 40) (name +3V3)
      (node (ref C10) (pin 1))
      (node (ref U3) (pin 36))
      (node (ref U3) (pin 48))
      (node (ref C12) (pin 1))
      (node (ref L1) (pin 1))
      (node (ref C9) (pin 1))
      (node (ref C11) (pin 1))
      (node (ref R12) (pin 2))
      (node (ref TFT1) (pin 2))
      (node (ref C2) (pin 1))
      (node (ref U1) (pin 2))
      (node (ref U3) (pin 1))
      (node (ref U3) (pin 24)))
    (net (code 41) (name "Net-(C13-Pad1)")
      (node (ref S1) (pin 3))
      (node (ref U3) (pin 7))
      (node (ref C13) (pin 1)))
    (net (code 42) (name "Net-(R13-Pad1)")
      (node (ref U3) (pin 44))
      (node (ref R13) (pin 1)))
    (net (code 43) (name "Net-(P1-Pad1)")
      (node (ref R9) (pin 2))
      (node (ref P1) (pin 1)))
    (net (code 44) (name /DAC_TO_FET)
      (node (ref U3) (pin 14))
      (node (ref R7) (pin 2)))
    (net (code 45) (name "Net-(J1-Pad2)")
      (node (ref R10) (pin 2))
      (node (ref J1) (pin 2)))
    (net (code 46) (name /LCD_WR)
      (node (ref TFT1) (pin 8))
      (node (ref U3) (pin 4)))
    (net (code 47) (name /LCD_RS)
      (node (ref U3) (pin 3))
      (node (ref TFT1) (pin 9)))
    (net (code 48) (name /LCD_RST)
      (node (ref TFT1) (pin 11))
      (node (ref U3) (pin 38)))
    (net (code 49) (name "Net-(C3-Pad1)")
      (node (ref C3) (pin 1))
      (node (ref Y1) (pin 1))
      (node (ref U3) (pin 5)))
    (net (code 50) (name "Net-(IC_ADC1-Pad12)")
      (node (ref IC_ADC1) (pin 12)))
    (net (code 51) (name "Net-(IC_ADC1-Pad21)")
      (node (ref IC_ADC1) (pin 21)))
    (net (code 52) (name "Net-(IC_ADC1-Pad20)")
      (node (ref IC_ADC1) (pin 20)))
    (net (code 53) (name /BIT5)
      (node (ref U3) (pin 41))
      (node (ref IC_ADC1) (pin 6)))
    (net (code 54) (name /BIT6)
      (node (ref IC_ADC1) (pin 5))
      (node (ref U3) (pin 42)))
    (net (code 55) (name /BIT7)
      (node (ref IC_ADC1) (pin 4))
      (node (ref U3) (pin 43)))
    (net (code 56) (name "Net-(R4-Pad1)")
      (node (ref R4) (pin 1))
      (node (ref U2) (pin 3))
      (node (ref U2) (pin 6))
      (node (ref U2) (pin 7)))
    (net (code 57) (name /LCD_CS)
      (node (ref TFT1) (pin 10))
      (node (ref U3) (pin 2)))
    (net (code 58) (name /BIT4)
      (node (ref IC_ADC1) (pin 7))
      (node (ref U3) (pin 40)))
    (net (code 59) (name /BIT2)
      (node (ref U3) (pin 20))
      (node (ref IC_ADC1) (pin 9)))
    (net (code 60) (name /BIT1)
      (node (ref U3) (pin 19))
      (node (ref IC_ADC1) (pin 10)))
    (net (code 61) (name /BIT0)
      (node (ref IC_ADC1) (pin 11))
      (node (ref U3) (pin 18)))
    (net (code 62) (name /ADC_CLK)
      (node (ref U3) (pin 29))
      (node (ref IC_ADC1) (pin 14)))
    (net (code 63) (name /BIT8)
      (node (ref U3) (pin 45))
      (node (ref IC_ADC1) (pin 3)))
    (net (code 64) (name /BIT9)
      (node (ref U3) (pin 46))
      (node (ref IC_ADC1) (pin 2)))
    (net (code 65) (name /BIT3)
      (node (ref IC_ADC1) (pin 8))
      (node (ref U3) (pin 39)))
    (net (code 66) (name /LCD_D6)
      (node (ref TFT1) (pin 19))
      (node (ref U3) (pin 21)))
    (net (code 67) (name /LCD_D0)
      (node (ref TFT1) (pin 21))
      (node (ref U3) (pin 16)))
    (net (code 68) (name "Net-(TFT1-Pad23)")
      (node (ref TFT1) (pin 23)))
    (net (code 69) (name "Net-(TFT1-Pad24)")
      (node (ref TFT1) (pin 24)))
    (net (code 70) (name /LCD_D2)
      (node (ref U3) (pin 27))
      (node (ref TFT1) (pin 15)))
    (net (code 71) (name "Net-(TFT1-Pad25)")
      (node (ref TFT1) (pin 25)))
    (net (code 72) (name /LCD_D3)
      (node (ref TFT1) (pin 16))
      (node (ref U3) (pin 26)))
    (net (code 73) (name "Net-(TFT1-Pad26)")
      (node (ref TFT1) (pin 26)))
    (net (code 74) (name /LCD_D4)
      (node (ref U3) (pin 25))
      (node (ref TFT1) (pin 17)))
    (net (code 75) (name /LCD_D5)
      (node (ref TFT1) (pin 18))
      (node (ref U3) (pin 22)))
    (net (code 76) (name "Net-(TFT1-Pad1)")
      (node (ref TFT1) (pin 1)))
    (net (code 77) (name /LCD_D7)
      (node (ref U3) (pin 17))
      (node (ref TFT1) (pin 20)))
    (net (code 78) (name "Net-(C14-Pad1)")
      (node (ref C14) (pin 1))
      (node (ref L1) (pin 2))
      (node (ref C15) (pin 1))
      (node (ref U3) (pin 9)))))