EESchema Schematic File Version 4
LIBS:oscil-cache
EELAYER 26 0
EELAYER END
$Descr A2 23386 16535
encoding utf-8
Sheet 1 1
Title ""
Date ""
Rev ""
Comp ""
Comment1 ""
Comment2 ""
Comment3 ""
Comment4 ""
$EndDescr
$Comp
L oscil-rescue:LM358-RESCUE-oscil U2
U 1 1 5874F681
P 7020 4330
F 0 "U2" H 6970 4530 50  0000 L CNN
F 1 "AD8066" H 6970 4080 50  0000 L CNN
F 2 "Housings_SOIC:SOIC-8_3.9x4.9mm_Pitch1.27mm" H 7020 4330 50  0001 C CNN
F 3 "" H 7020 4330 50  0000 C CNN
	1    7020 4330
	-1   0    0    -1  
$EndComp
$Comp
L oscil-rescue:LM358-RESCUE-oscil U2
U 2 1 5874F778
P 8370 4350
F 0 "U2" H 8320 4550 50  0000 L CNN
F 1 "AD8066" H 8320 4100 50  0000 L CNN
F 2 "Housings_SOIC:SOIC-8_3.9x4.9mm_Pitch1.27mm" H 8370 4350 50  0001 C CNN
F 3 "" H 8370 4350 50  0000 C CNN
	2    8370 4350
	-1   0    0    -1  
$EndComp
$Comp
L stm32:STM32F303CBTx U3
U 1 1 5874F8CD
P 13195 8990
F 0 "U3" H 5995 10715 50  0000 L BNN
F 1 "STM32F303CBTx" H 20395 10715 50  0000 R BNN
F 2 "Housings_QFP:LQFP-48_7x7mm_Pitch0.5mm" H 20395 10665 50  0000 R TNN
F 3 "" H 13195 8990 50  0000 C CNN
	1    13195 8990
	1    0    0    -1  
$EndComp
$Comp
L ads828e:ADS828E IC_ADC1
U 1 1 5874FA7B
P 4555 4820
F 0 "IC_ADC1" H 4265 5480 60  0000 C CNN
F 1 "ADS828E" H 4545 5380 60  0000 C CNN
F 2 "Housings_SSOP:SSOP-28_5.3x10.2mm_Pitch0.65mm" H 4195 5130 60  0001 C CNN
F 3 "" H 4195 5130 60  0001 C CNN
	1    4555 4820
	1    0    0    -1  
$EndComp
$Comp
L AMS1117-3.3:AMS1117-3.3 U1
U 1 1 5874FCB7
P 13785 3735
F 0 "U1" H 13085 3135 50  0000 L CNN
F 1 "AMS1117-3.3" H 13085 3035 50  0000 L CNN
F 2 "TO_SOT_Packages_SMD:SOT-223" H 13785 3735 50  0001 L CNN
F 3 "Sot223/Pkg 1-Amp 3.3-Volt Low Drop Out Voltage Regulatator" H 13785 3735 50  0001 L CNN
F 4 "None" H 13785 3735 50  0001 L CNN "Price"
F 5 "Advanced Monolithic Systems" H 13785 3735 50  0001 L CNN "MF"
F 6 "AMS1117-3.3" H 13785 3735 50  0001 L CNN "MP"
F 7 "None" H 13785 3735 50  0001 L CNN "Package"
F 8 "Unavailable" H 13785 3735 50  0001 L CNN "Availability"
	1    13785 3735
	1    0    0    -1  
$EndComp
$Comp
L power1:-5V #PWR01
U 1 1 5875084D
P 8470 4650
F 0 "#PWR01" H 8470 4750 50  0001 C CNN
F 1 "-5V" H 8470 4800 50  0000 C CNN
F 2 "" H 8470 4650 50  0000 C CNN
F 3 "" H 8470 4650 50  0000 C CNN
	1    8470 4650
	-1   0    0    1   
$EndComp
$Comp
L power1:-5V #PWR02
U 1 1 58750894
P 7120 4630
F 0 "#PWR02" H 7120 4730 50  0001 C CNN
F 1 "-5V" H 7120 4780 50  0000 C CNN
F 2 "" H 7120 4630 50  0000 C CNN
F 3 "" H 7120 4630 50  0000 C CNN
	1    7120 4630
	-1   0    0    1   
$EndComp
$Comp
L power1:+5V #PWR03
U 1 1 58750AF7
P 8470 4050
F 0 "#PWR03" H 8470 3900 50  0001 C CNN
F 1 "+5V" H 8470 4190 50  0000 C CNN
F 2 "" H 8470 4050 50  0000 C CNN
F 3 "" H 8470 4050 50  0000 C CNN
	1    8470 4050
	1    0    0    -1  
$EndComp
$Comp
L power1:+5V #PWR04
U 1 1 58750B3E
P 7120 4030
F 0 "#PWR04" H 7120 3880 50  0001 C CNN
F 1 "+5V" H 7120 4170 50  0000 C CNN
F 2 "" H 7120 4030 50  0000 C CNN
F 3 "" H 7120 4030 50  0000 C CNN
	1    7120 4030
	1    0    0    -1  
$EndComp
$Comp
L oscil-rescue:GNDD #PWR05
U 1 1 587513C5
P 13135 11075
F 0 "#PWR05" H 13135 10825 50  0001 C CNN
F 1 "GNDD" H 13135 10925 50  0000 C CNN
F 2 "" H 13135 11075 50  0000 C CNN
F 3 "" H 13135 11075 50  0000 C CNN
	1    13135 11075
	1    0    0    -1  
$EndComp
$Comp
L oscil-rescue:+3.3V-RESCUE-oscil #PWR06
U 1 1 58751C7E
P 13080 6750
F 0 "#PWR06" H 13080 6600 50  0001 C CNN
F 1 "+3.3V" H 13080 6890 50  0000 C CNN
F 2 "" H 13080 6750 50  0000 C CNN
F 3 "" H 13080 6750 50  0000 C CNN
	1    13080 6750
	1    0    0    -1  
$EndComp
$Comp
L oscil-rescue:+3.3V-RESCUE-oscil #PWR07
U 1 1 58751E6E
P 5610 7955
F 0 "#PWR07" H 5610 7805 50  0001 C CNN
F 1 "+3.3V" H 5610 8095 50  0000 C CNN
F 2 "" H 5610 7955 50  0000 C CNN
F 3 "" H 5610 7955 50  0000 C CNN
	1    5610 7955
	1    0    0    -1  
$EndComp
$Comp
L oscil-rescue:Crystal Y1
U 1 1 58751F4B
P 5250 8185
F 0 "Y1" H 5250 8335 50  0000 C CNN
F 1 "Crystal" H 5250 8035 50  0000 C CNN
F 2 "Crystals:Crystal_HC49-U_Vertical" H 5250 8185 50  0001 C CNN
F 3 "" H 5250 8185 50  0000 C CNN
	1    5250 8185
	0    1    1    0   
$EndComp
$Comp
L oscil-rescue:GNDD #PWR08
U 1 1 587520EC
P 4655 8170
F 0 "#PWR08" H 4655 7920 50  0001 C CNN
F 1 "GNDD" H 4655 8020 50  0000 C CNN
F 2 "" H 4655 8170 50  0000 C CNN
F 3 "" H 4655 8170 50  0000 C CNN
	1    4655 8170
	1    0    0    -1  
$EndComp
$Comp
L oscil-rescue:C-RESCUE-oscil C3
U 1 1 58752112
P 4975 8020
F 0 "C3" H 5000 8120 50  0000 L CNN
F 1 "22pF" H 5000 7920 50  0000 L CNN
F 2 "Capacitors_SMD:C_0805_HandSoldering" H 5013 7870 50  0001 C CNN
F 3 "" H 4975 8020 50  0000 C CNN
	1    4975 8020
	0    1    1    0   
$EndComp
$Comp
L oscil-rescue:C-RESCUE-oscil C4
U 1 1 587521E5
P 4975 8350
F 0 "C4" H 5000 8450 50  0000 L CNN
F 1 "22pF" H 5000 8250 50  0000 L CNN
F 2 "Capacitors_SMD:C_0805_HandSoldering" H 5013 8200 50  0001 C CNN
F 3 "" H 4975 8350 50  0000 C CNN
	1    4975 8350
	0    1    1    0   
$EndComp
$Comp
L oscil-rescue:+3.3V-RESCUE-oscil #PWR09
U 1 1 5875298D
P 14770 3720
F 0 "#PWR09" H 14770 3570 50  0001 C CNN
F 1 "+3.3V" H 14770 3860 50  0000 C CNN
F 2 "" H 14770 3720 50  0000 C CNN
F 3 "" H 14770 3720 50  0000 C CNN
	1    14770 3720
	1    0    0    -1  
$EndComp
$Comp
L power1:+5V #PWR010
U 1 1 587529B7
P 12950 3560
F 0 "#PWR010" H 12950 3410 50  0001 C CNN
F 1 "+5V" H 12950 3700 50  0000 C CNN
F 2 "" H 12950 3560 50  0000 C CNN
F 3 "" H 12950 3560 50  0000 C CNN
	1    12950 3560
	1    0    0    -1  
$EndComp
$Comp
L oscil-rescue:GND-RESCUE-oscil #PWR011
U 1 1 58752E72
P 13785 4135
F 0 "#PWR011" H 13785 3885 50  0001 C CNN
F 1 "GND" H 13785 3985 50  0000 C CNN
F 2 "" H 13785 4135 50  0000 C CNN
F 3 "" H 13785 4135 50  0000 C CNN
	1    13785 4135
	1    0    0    -1  
$EndComp
$Comp
L oscil-rescue:C-RESCUE-oscil C2
U 1 1 58752FA7
P 14595 3970
F 0 "C2" H 14620 4070 50  0000 L CNN
F 1 "100nF" H 14620 3870 50  0000 L CNN
F 2 "Capacitors_SMD:C_0805_HandSoldering" H 14633 3820 50  0001 C CNN
F 3 "" H 14595 3970 50  0000 C CNN
	1    14595 3970
	1    0    0    -1  
$EndComp
$Comp
L oscil-rescue:C-RESCUE-oscil C1
U 1 1 58753048
P 13025 3935
F 0 "C1" H 13050 4035 50  0000 L CNN
F 1 "100nF" H 13050 3835 50  0000 L CNN
F 2 "Capacitors_SMD:C_0805_HandSoldering" H 13063 3785 50  0001 C CNN
F 3 "" H 13025 3935 50  0000 C CNN
	1    13025 3935
	1    0    0    -1  
$EndComp
$Comp
L oscil-rescue:GND-RESCUE-oscil #PWR012
U 1 1 58753101
P 14595 4120
F 0 "#PWR012" H 14595 3870 50  0001 C CNN
F 1 "GND" H 14595 3970 50  0000 C CNN
F 2 "" H 14595 4120 50  0000 C CNN
F 3 "" H 14595 4120 50  0000 C CNN
	1    14595 4120
	1    0    0    -1  
$EndComp
$Comp
L oscil-rescue:GND-RESCUE-oscil #PWR013
U 1 1 5875322A
P 13025 4085
F 0 "#PWR013" H 13025 3835 50  0001 C CNN
F 1 "GND" H 13025 3935 50  0000 C CNN
F 2 "" H 13025 4085 50  0000 C CNN
F 3 "" H 13025 4085 50  0000 C CNN
	1    13025 4085
	1    0    0    -1  
$EndComp
$Comp
L oscil-rescue:GND-RESCUE-oscil #PWR014
U 1 1 58753BCC
P 3400 4720
F 0 "#PWR014" H 3400 4470 50  0001 C CNN
F 1 "GND" H 3400 4570 50  0000 C CNN
F 2 "" H 3400 4720 50  0000 C CNN
F 3 "" H 3400 4720 50  0000 C CNN
	1    3400 4720
	1    0    0    -1  
$EndComp
Entry Wire Line
	3795 4500 3895 4400
Entry Wire Line
	3795 4580 3895 4480
Entry Wire Line
	3795 4660 3895 4560
Entry Wire Line
	3795 4740 3895 4640
Entry Wire Line
	3795 4820 3895 4720
Entry Wire Line
	3795 4900 3895 4800
Entry Wire Line
	3795 4980 3895 4880
Entry Wire Line
	3795 5060 3895 4960
Entry Wire Line
	3795 5140 3895 5040
Entry Wire Line
	3795 5220 3895 5120
$Comp
L power1:+5V #PWR015
U 1 1 58754D4F
P 5475 4195
F 0 "#PWR015" H 5475 4045 50  0001 C CNN
F 1 "+5V" H 5475 4335 50  0000 C CNN
F 2 "" H 5475 4195 50  0000 C CNN
F 3 "" H 5475 4195 50  0000 C CNN
	1    5475 4195
	1    0    0    -1  
$EndComp
$Comp
L oscil-rescue:GND-RESCUE-oscil #PWR016
U 1 1 5875502C
P 5815 4265
F 0 "#PWR016" H 5815 4015 50  0001 C CNN
F 1 "GND" H 5815 4115 50  0000 C CNN
F 2 "" H 5815 4265 50  0000 C CNN
F 3 "" H 5815 4265 50  0000 C CNN
	1    5815 4265
	1    0    0    -1  
$EndComp
Entry Wire Line
	5795 8790 5895 8890
Entry Wire Line
	5795 8890 5895 8990
Entry Wire Line
	5795 8990 5895 9090
Entry Wire Line
	5795 9090 5895 9190
Entry Wire Line
	5795 9190 5895 9290
Entry Wire Line
	5795 9290 5895 9390
Entry Wire Line
	5795 9390 5895 9490
Entry Wire Line
	5795 9490 5895 9590
Entry Wire Line
	5795 9590 5895 9690
Entry Wire Line
	5795 9690 5895 9790
$Comp
L power1:+5V #PWR017
U 1 1 5876A6A2
P 5845 5355
F 0 "#PWR017" H 5845 5205 50  0001 C CNN
F 1 "+5V" H 5845 5495 50  0000 C CNN
F 2 "" H 5845 5355 50  0000 C CNN
F 3 "" H 5845 5355 50  0000 C CNN
	1    5845 5355
	1    0    0    -1  
$EndComp
$Comp
L oscil-rescue:GND-RESCUE-oscil #PWR018
U 1 1 5876AAD7
P 5620 5115
F 0 "#PWR018" H 5620 4865 50  0001 C CNN
F 1 "GND" H 5620 4965 50  0000 C CNN
F 2 "" H 5620 5115 50  0000 C CNN
F 3 "" H 5620 5115 50  0000 C CNN
	1    5620 5115
	1    0    0    -1  
$EndComp
NoConn ~ 5205 4880
NoConn ~ 5205 4960
Text Label 3895 4400 2    60   ~ 0
BIT9
Text Label 5895 8890 2    60   ~ 0
BIT0
Text Label 5895 8990 2    60   ~ 0
BIT1
Text Label 5895 9090 2    60   ~ 0
BIT2
Text Label 5895 9190 2    60   ~ 0
BIT3
Text Label 5895 9290 2    60   ~ 0
BIT4
Text Label 5895 9390 2    60   ~ 0
BIT5
Text Label 5895 9490 2    60   ~ 0
BIT6
Text Label 5895 9590 2    60   ~ 0
BIT7
Text Label 5895 9690 2    60   ~ 0
BIT8
Text Label 5895 9790 2    60   ~ 0
BIT9
Text Label 3895 4480 2    60   ~ 0
BIT8
Text Label 3895 4560 2    60   ~ 0
BIT7
Text Label 3895 4640 2    60   ~ 0
BIT6
Text Label 3895 4720 2    60   ~ 0
BIT5
Text Label 3895 4800 2    60   ~ 0
BIT4
Text Label 3895 4880 2    60   ~ 0
BIT3
Text Label 3895 4960 2    60   ~ 0
BIT2
Text Label 3895 5120 2    60   ~ 0
BIT0
Text Label 3895 5040 2    60   ~ 0
BIT1
NoConn ~ 3895 5200
$Comp
L oscil-rescue:GNDD #PWR019
U 1 1 5876C31C
P 3530 5295
F 0 "#PWR019" H 3530 5045 50  0001 C CNN
F 1 "GNDD" H 3530 5145 50  0000 C CNN
F 2 "" H 3530 5295 50  0000 C CNN
F 3 "" H 3530 5295 50  0000 C CNN
	1    3530 5295
	1    0    0    -1  
$EndComp
$Comp
L oscil-rescue:GND-RESCUE-oscil #PWR020
U 1 1 5876C8C0
P 6245 5135
F 0 "#PWR020" H 6245 4885 50  0001 C CNN
F 1 "GND" H 6245 4985 50  0000 C CNN
F 2 "" H 6245 5135 50  0000 C CNN
F 3 "" H 6245 5135 50  0000 C CNN
	1    6245 5135
	1    0    0    -1  
$EndComp
$Comp
L oscil-rescue:C-RESCUE-oscil C7
U 1 1 5876CF3A
P 5430 4680
F 0 "C7" H 5455 4780 50  0000 L CNN
F 1 "100nF" H 5455 4580 50  0000 L CNN
F 2 "Capacitors_SMD:C_0805_HandSoldering" H 5468 4530 50  0001 C CNN
F 3 "" H 5430 4680 50  0000 C CNN
	1    5430 4680
	0    1    1    0   
$EndComp
$Comp
L device:INDUCTOR L1
U 1 1 5876EF99
P 13295 6890
F 0 "L1" V 13245 6890 50  0000 C CNN
F 1 "100uH" V 13395 6890 50  0000 C CNN
F 2 "Resistors_ThroughHole:Resistor_Horizontal_RM10mm" H 13295 6890 50  0001 C CNN
F 3 "" H 13295 6890 50  0000 C CNN
	1    13295 6890
	1    0    0    -1  
$EndComp
$Comp
L oscil-rescue:+3.3V-RESCUE-oscil #PWR021
U 1 1 5876F28F
P 13295 6590
F 0 "#PWR021" H 13295 6440 50  0001 C CNN
F 1 "+3.3V" H 13295 6730 50  0000 C CNN
F 2 "" H 13295 6590 50  0000 C CNN
F 3 "" H 13295 6590 50  0000 C CNN
	1    13295 6590
	1    0    0    -1  
$EndComp
$Comp
L oscil-rescue:R-RESCUE-oscil R1
U 1 1 5876FBF8
P 6505 4560
F 0 "R1" V 6585 4560 50  0000 C CNN
F 1 "30R" V 6505 4560 50  0000 C CNN
F 2 "Resistors_SMD:R_0603_HandSoldering" V 6435 4560 50  0001 C CNN
F 3 "" H 6505 4560 50  0000 C CNN
	1    6505 4560
	0    1    1    0   
$EndComp
$Comp
L oscil-rescue:R-RESCUE-oscil R5
U 1 1 587707A5
P 7645 4625
F 0 "R5" V 7725 4625 50  0000 C CNN
F 1 "470" V 7645 4625 50  0000 C CNN
F 2 "Resistors_SMD:R_0603_HandSoldering" V 7575 4625 50  0001 C CNN
F 3 "" H 7645 4625 50  0000 C CNN
	1    7645 4625
	1    0    0    -1  
$EndComp
$Comp
L oscil-rescue:R-RESCUE-oscil R6
U 1 1 587709E8
P 7645 5015
F 0 "R6" V 7725 5015 50  0000 C CNN
F 1 "470" V 7645 5015 50  0000 C CNN
F 2 "Resistors_SMD:R_0603_HandSoldering" V 7575 5015 50  0001 C CNN
F 3 "" H 7645 5015 50  0000 C CNN
	1    7645 5015
	1    0    0    -1  
$EndComp
$Comp
L power1:-5V #PWR022
U 1 1 58770B62
P 7645 5165
F 0 "#PWR022" H 7645 5265 50  0001 C CNN
F 1 "-5V" H 7645 5315 50  0000 C CNN
F 2 "" H 7645 5165 50  0000 C CNN
F 3 "" H 7645 5165 50  0000 C CNN
	1    7645 5165
	-1   0    0    1   
$EndComp
$Comp
L oscil-rescue:GND-RESCUE-oscil #PWR023
U 1 1 58771007
P 7870 4495
F 0 "#PWR023" H 7870 4245 50  0001 C CNN
F 1 "GND" H 7870 4345 50  0000 C CNN
F 2 "" H 7870 4495 50  0000 C CNN
F 3 "" H 7870 4495 50  0000 C CNN
	1    7870 4495
	1    0    0    -1  
$EndComp
$Comp
L oscil-rescue:R-RESCUE-oscil R2
U 1 1 58771268
P 7065 4940
F 0 "R2" V 7145 4940 50  0000 C CNN
F 1 "270" V 7065 4940 50  0000 C CNN
F 2 "Resistors_SMD:R_0603_HandSoldering" V 6995 4940 50  0001 C CNN
F 3 "" H 7065 4940 50  0000 C CNN
	1    7065 4940
	0    1    1    0   
$EndComp
Text Label 3615 5605 2    60   ~ 0
ADC_CLK
Text Label 20925 9690 2    60   ~ 0
ADC_CLK
$Comp
L oscil-rescue:R-RESCUE-oscil R4
U 1 1 58772D60
P 7645 4325
F 0 "R4" V 7725 4325 50  0000 C CNN
F 1 "1k" V 7645 4325 50  0000 C CNN
F 2 "Resistors_SMD:R_0603_HandSoldering" V 7575 4325 50  0001 C CNN
F 3 "" H 7645 4325 50  0000 C CNN
	1    7645 4325
	1    0    0    -1  
$EndComp
$Comp
L pinhead:PINHD-1X2 JP2
U 1 1 5877A4E8
P 21035 9885
F 0 "JP2" H 20785 10110 50  0000 L BNN
F 1 "PINHD-1X2" H 20785 9685 50  0000 L BNN
F 2 "Pin_Headers:Pin_Header_Straight_1x02" H 21035 10035 50  0001 C CNN
F 3 "" H 21035 9885 60  0001 C CNN
	1    21035 9885
	1    0    0    -1  
$EndComp
$Comp
L power1:+5V #PWR024
U 1 1 5877C118
P 22130 9545
F 0 "#PWR024" H 22130 9395 50  0001 C CNN
F 1 "+5V" H 22130 9685 50  0000 C CNN
F 2 "" H 22130 9545 50  0000 C CNN
F 3 "" H 22130 9545 50  0000 C CNN
	1    22130 9545
	1    0    0    -1  
$EndComp
$Comp
L pinhead:PINHD-1X2 JP1
U 1 1 587796E3
P 21010 10450
F 0 "JP1" H 20760 10675 50  0000 L BNN
F 1 "PINHD-1X2" H 20760 10250 50  0000 L BNN
F 2 "Pin_Headers:Pin_Header_Straight_1x02" H 21010 10600 50  0001 C CNN
F 3 "" H 21010 10450 60  0001 C CNN
	1    21010 10450
	1    0    0    -1  
$EndComp
$Comp
L oscil-rescue:GND-RESCUE-oscil #PWR025
U 1 1 5878F193
P 10305 4535
F 0 "#PWR025" H 10305 4285 50  0001 C CNN
F 1 "GND" H 10305 4385 50  0000 C CNN
F 2 "" H 10305 4535 50  0000 C CNN
F 3 "" H 10305 4535 50  0000 C CNN
	1    10305 4535
	1    0    0    -1  
$EndComp
$Comp
L device:BNC P1
U 1 1 5878F1D0
P 11625 3315
F 0 "P1" H 11635 3435 60  0000 C CNN
F 1 "BNC" V 11735 3255 40  0000 C CNN
F 2 "BNC2:BNC2" H 11625 3315 60  0001 C CNN
F 3 "" H 11625 3315 60  0001 C CNN
	1    11625 3315
	1    0    0    -1  
$EndComp
$Comp
L device:FET_P Q1
U 1 1 5878F352
P 10155 4155
F 0 "Q1" H 10058 4405 70  0000 C CNN
F 1 "FET_P" H 10008 3908 60  0000 C CNN
F 2 "TO_SOT_Packages_THT:TO-92_Rugged" H 10155 4155 60  0001 C CNN
F 3 "" H 10155 4155 60  0001 C CNN
	1    10155 4155
	1    0    0    -1  
$EndComp
$Comp
L oscil-rescue:R-RESCUE-oscil R9
U 1 1 5878FA83
P 10785 3320
F 0 "R9" V 10865 3320 50  0000 C CNN
F 1 "47k" V 10785 3320 50  0000 C CNN
F 2 "Resistors_SMD:R_0603_HandSoldering" V 10715 3320 50  0001 C CNN
F 3 "" H 10785 3320 50  0000 C CNN
	1    10785 3320
	0    -1   -1   0   
$EndComp
$Comp
L oscil-rescue:GND-RESCUE-oscil #PWR026
U 1 1 5878FE9D
P 11625 3550
F 0 "#PWR026" H 11625 3300 50  0001 C CNN
F 1 "GND" H 11625 3400 50  0000 C CNN
F 2 "" H 11625 3550 50  0000 C CNN
F 3 "" H 11625 3550 50  0000 C CNN
	1    11625 3550
	1    0    0    -1  
$EndComp
Text Label 9040 4155 0    60   ~ 0
DAC_TO_FET
$Comp
L oscil-rescue:R-RESCUE-oscil R7
U 1 1 58791DEC
P 9665 4155
F 0 "R7" V 9745 4155 50  0000 C CNN
F 1 "50R" V 9665 4155 50  0000 C CNN
F 2 "Resistors_SMD:R_0603_HandSoldering" V 9595 4155 50  0001 C CNN
F 3 "" H 9665 4155 50  0000 C CNN
	1    9665 4155
	0    1    1    0   
$EndComp
Text Label 20805 9290 0    60   ~ 0
DAC_TO_FET
$Comp
L oscil-rescue:R-RESCUE-oscil R12
U 1 1 58796B18
P 21920 9740
F 0 "R12" V 22000 9740 50  0000 C CNN
F 1 "1.5k" V 21920 9740 50  0000 C CNN
F 2 "Resistors_SMD:R_0603_HandSoldering" V 21850 9740 50  0001 C CNN
F 3 "" H 21920 9740 50  0000 C CNN
	1    21920 9740
	-1   0    0    1   
$EndComp
$Comp
L oscil-rescue:+3.3V-RESCUE-oscil #PWR027
U 1 1 58798830
P 21920 9525
F 0 "#PWR027" H 21920 9375 50  0001 C CNN
F 1 "+3.3V" H 21920 9665 50  0000 C CNN
F 2 "" H 21920 9525 50  0000 C CNN
F 3 "" H 21920 9525 50  0000 C CNN
	1    21920 9525
	1    0    0    -1  
$EndComp
$Comp
L oscil-rescue:GND-RESCUE-oscil #PWR028
U 1 1 5879A347
P 22025 10230
F 0 "#PWR028" H 22025 9980 50  0001 C CNN
F 1 "GND" H 22025 10080 50  0000 C CNN
F 2 "" H 22025 10230 50  0000 C CNN
F 3 "" H 22025 10230 50  0000 C CNN
	1    22025 10230
	1    0    0    -1  
$EndComp
$Comp
L oscil-rescue:R-RESCUE-oscil R11
U 1 1 5879AC76
P 21585 10205
F 0 "R11" V 21665 10205 50  0000 C CNN
F 1 "22R" V 21585 10205 50  0000 C CNN
F 2 "Resistors_SMD:R_0603_HandSoldering" V 21515 10205 50  0001 C CNN
F 3 "" H 21585 10205 50  0000 C CNN
	1    21585 10205
	0    -1   -1   0   
$EndComp
$Comp
L oscil-rescue:R-RESCUE-oscil R10
U 1 1 5879AD43
P 21590 10020
F 0 "R10" V 21670 10020 50  0000 C CNN
F 1 "22R" V 21590 10020 50  0000 C CNN
F 2 "Resistors_SMD:R_0603_HandSoldering" V 21520 10020 50  0001 C CNN
F 3 "" H 21590 10020 50  0000 C CNN
	1    21590 10020
	0    -1   -1   0   
$EndComp
$Comp
L oscil-rescue:GNDD #PWR029
U 1 1 5879D4AC
P 14185 7045
F 0 "#PWR029" H 14185 6795 50  0001 C CNN
F 1 "GNDD" H 14185 6895 50  0000 C CNN
F 2 "" H 14185 7045 50  0000 C CNN
F 3 "" H 14185 7045 50  0000 C CNN
	1    14185 7045
	1    0    0    -1  
$EndComp
$Comp
L oscil-rescue:GNDD #PWR030
U 1 1 5879D8F7
P 13895 7045
F 0 "#PWR030" H 13895 6795 50  0001 C CNN
F 1 "GNDD" H 13895 6895 50  0000 C CNN
F 2 "" H 13895 7045 50  0000 C CNN
F 3 "" H 13895 7045 50  0000 C CNN
	1    13895 7045
	1    0    0    -1  
$EndComp
$Comp
L oscil-rescue:C-RESCUE-oscil C14
U 1 1 5879DB22
P 13895 6895
F 0 "C14" H 13920 6995 50  0000 L CNN
F 1 "100nF" H 13920 6795 50  0000 L CNN
F 2 "Capacitors_SMD:C_0805_HandSoldering" H 13933 6745 50  0001 C CNN
F 3 "" H 13895 6895 50  0000 C CNN
	1    13895 6895
	1    0    0    -1  
$EndComp
$Comp
L oscil-rescue:CP-RESCUE-oscil C15
U 1 1 5879EAD9
P 14185 6895
F 0 "C15" H 14210 6995 50  0000 L CNN
F 1 "100uF" H 14210 6795 50  0000 L CNN
F 2 "Capacitors_ThroughHole:C_Radial_D5_L6_P2.5" H 14223 6745 50  0001 C CNN
F 3 "" H 14185 6895 50  0000 C CNN
	1    14185 6895
	1    0    0    -1  
$EndComp
$Comp
L oscil-rescue:CP-RESCUE-oscil C8
U 1 1 5879F908
P 12665 3935
F 0 "C8" H 12690 4035 50  0000 L CNN
F 1 "100uF" H 12690 3835 50  0000 L CNN
F 2 "Capacitors_ThroughHole:C_Radial_D5_L6_P2.5" H 12703 3785 50  0001 C CNN
F 3 "" H 12665 3935 50  0000 C CNN
	1    12665 3935
	1    0    0    -1  
$EndComp
$Comp
L oscil-rescue:GND-RESCUE-oscil #PWR031
U 1 1 5879FE75
P 12665 4085
F 0 "#PWR031" H 12665 3835 50  0001 C CNN
F 1 "GND" H 12665 3935 50  0000 C CNN
F 2 "" H 12665 4085 50  0000 C CNN
F 3 "" H 12665 4085 50  0000 C CNN
	1    12665 4085
	1    0    0    -1  
$EndComp
$Comp
L oscil-rescue:GND-RESCUE-oscil #PWR032
U 1 1 587A0A92
P 14905 4135
F 0 "#PWR032" H 14905 3885 50  0001 C CNN
F 1 "GND" H 14905 3985 50  0000 C CNN
F 2 "" H 14905 4135 50  0000 C CNN
F 3 "" H 14905 4135 50  0000 C CNN
	1    14905 4135
	1    0    0    -1  
$EndComp
$Comp
L oscil-rescue:CP-RESCUE-oscil C12
U 1 1 587A0B06
P 14905 3985
F 0 "C12" H 14930 4085 50  0000 L CNN
F 1 "100uF" H 14930 3885 50  0000 L CNN
F 2 "Capacitors_ThroughHole:C_Radial_D5_L6_P2.5" H 14943 3835 50  0001 C CNN
F 3 "" H 14905 3985 50  0000 C CNN
	1    14905 3985
	1    0    0    -1  
$EndComp
$Comp
L oscil-rescue:C-RESCUE-oscil C9
U 1 1 587A15BC
P 2350 5945
F 0 "C9" H 2375 6045 50  0000 L CNN
F 1 "100nF" H 2375 5845 50  0000 L CNN
F 2 "Capacitors_SMD:C_0805_HandSoldering" H 2388 5795 50  0001 C CNN
F 3 "" H 2350 5945 50  0000 C CNN
	1    2350 5945
	1    0    0    -1  
$EndComp
$Comp
L oscil-rescue:C-RESCUE-oscil C10
U 1 1 587A1DF9
P 2560 5945
F 0 "C10" H 2585 6045 50  0000 L CNN
F 1 "100nF" H 2585 5845 50  0000 L CNN
F 2 "Capacitors_SMD:C_0805_HandSoldering" H 2598 5795 50  0001 C CNN
F 3 "" H 2560 5945 50  0000 C CNN
	1    2560 5945
	1    0    0    -1  
$EndComp
$Comp
L oscil-rescue:C-RESCUE-oscil C11
U 1 1 587A1F37
P 2770 5945
F 0 "C11" H 2795 6045 50  0000 L CNN
F 1 "100nF" H 2795 5845 50  0000 L CNN
F 2 "Capacitors_SMD:C_0805_HandSoldering" H 2808 5795 50  0001 C CNN
F 3 "" H 2770 5945 50  0000 C CNN
	1    2770 5945
	1    0    0    -1  
$EndComp
$Comp
L oscil-rescue:+3.3V-RESCUE-oscil #PWR033
U 1 1 587A2D9A
P 2560 5795
F 0 "#PWR033" H 2560 5645 50  0001 C CNN
F 1 "+3.3V" H 2560 5935 50  0000 C CNN
F 2 "" H 2560 5795 50  0000 C CNN
F 3 "" H 2560 5795 50  0000 C CNN
	1    2560 5795
	1    0    0    -1  
$EndComp
$Comp
L oscil-rescue:C-RESCUE-oscil C13
U 1 1 587A6BB7
P 4635 7380
F 0 "C13" H 4660 7480 50  0000 L CNN
F 1 "100nF" H 4660 7280 50  0000 L CNN
F 2 "Capacitors_SMD:C_0805_HandSoldering" H 4673 7230 50  0001 C CNN
F 3 "" H 4635 7380 50  0000 C CNN
	1    4635 7380
	1    0    0    -1  
$EndComp
$Comp
L oscil-rescue:GNDD #PWR034
U 1 1 587A6D4D
P 4635 7530
F 0 "#PWR034" H 4635 7280 50  0001 C CNN
F 1 "GNDD" H 4635 7380 50  0000 C CNN
F 2 "" H 4635 7530 50  0000 C CNN
F 3 "" H 4635 7530 50  0000 C CNN
	1    4635 7530
	1    0    0    -1  
$EndComp
$Comp
L oscil-rescue:R-RESCUE-oscil R13
U 1 1 587A7E6A
P 5465 7670
F 0 "R13" V 5545 7670 50  0000 C CNN
F 1 "10k" V 5465 7670 50  0000 C CNN
F 2 "Resistors_SMD:R_0603_HandSoldering" V 5395 7670 50  0001 C CNN
F 3 "" H 5465 7670 50  0000 C CNN
	1    5465 7670
	0    1    1    0   
$EndComp
$Comp
L oscil-rescue:GNDD #PWR035
U 1 1 587A8610
P 5305 7755
F 0 "#PWR035" H 5305 7505 50  0001 C CNN
F 1 "GNDD" H 5305 7605 50  0000 C CNN
F 2 "" H 5305 7755 50  0000 C CNN
F 3 "" H 5305 7755 50  0000 C CNN
	1    5305 7755
	1    0    0    -1  
$EndComp
$Comp
L switch-tact:DTS-6 S1
U 1 1 587AAD5B
P 4815 6455
F 0 "S1" V 4530 6355 50  0000 L BNN
F 1 "DTS-6" V 4630 6580 50  0000 L BNN
F 2 "switch-tact:switch-tact-DTS-6" H 4815 6605 50  0001 C CNN
F 3 "" H 4815 6455 60  0001 C CNN
	1    4815 6455
	0    1    1    0   
$EndComp
$Comp
L oscil-rescue:GNDD #PWR036
U 1 1 587AB62E
P 4615 6555
F 0 "#PWR036" H 4615 6305 50  0001 C CNN
F 1 "GNDD" H 4615 6405 50  0000 C CNN
F 2 "" H 4615 6555 50  0000 C CNN
F 3 "" H 4615 6555 50  0000 C CNN
	1    4615 6555
	1    0    0    -1  
$EndComp
$Comp
L tft2_4:TFT2_4 TFT1
U 1 1 587B222E
P 1250 8090
F 0 "TFT1" H 2065 9525 60  0000 C CNN
F 1 "TFT2_4" H 1410 9530 60  0000 C CNN
F 2 "tft_2:TFT_2_4_Adafruit" H 1250 8090 60  0001 C CNN
F 3 "" H 1250 8090 60  0001 C CNN
	1    1250 8090
	1    0    0    -1  
$EndComp
Entry Wire Line
	900  6690 1000 6790
Entry Wire Line
	900  6755 1000 6855
Entry Wire Line
	900  6820 1000 6920
Entry Wire Line
	900  6885 1000 6985
Entry Wire Line
	900  6950 1000 7050
Entry Wire Line
	900  7015 1000 7115
Entry Wire Line
	900  7080 1000 7180
Entry Wire Line
	900  7145 1000 7245
Entry Wire Line
	5795 9990 5895 9890
Entry Wire Line
	5795 10090 5895 9990
Entry Wire Line
	5795 10190 5895 10090
Entry Wire Line
	5795 10290 5895 10190
Entry Wire Line
	5795 10390 5895 10290
Entry Wire Line
	5795 8390 5895 8490
Entry Wire Line
	5795 8490 5895 8590
Entry Bus Bus
	4805 10895 4905 10795
Text Label 1000 6790 0    60   ~ 0
LCD_D0
Text Label 1000 6855 0    60   ~ 0
LCD_D1
Text Label 1000 6920 0    60   ~ 0
LCD_D2
Text Label 1000 6985 0    60   ~ 0
LCD_D3
Text Label 1000 7050 0    60   ~ 0
LCD_D4
Text Label 1000 7115 0    60   ~ 0
LCD_D5
Text Label 1000 7180 0    60   ~ 0
LCD_D6
Text Label 1000 7245 0    60   ~ 0
LCD_D7
Text Label 5895 9890 2    60   ~ 0
LCD_D6
Text Label 5895 9990 2    60   ~ 0
LCD_D5
Text Label 5895 10090 2    60   ~ 0
LCD_D4
Text Label 5895 10190 2    60   ~ 0
LCD_D3
Text Label 5895 10290 2    60   ~ 0
LCD_D2
Text Label 5570 10390 2    60   ~ 0
SW1
Text Label 5895 8490 2    60   ~ 0
LCD_CS
Text Label 5895 8590 2    60   ~ 0
LCD_RS
Text Label 5580 8690 0    60   ~ 0
LCD_WR
Text Label 2690 7250 2    60   ~ 0
LCD_RD
Text Label 2690 7315 2    60   ~ 0
LCD_WR
Text Label 2690 7380 2    60   ~ 0
LCD_RS
Text Label 2690 7445 2    60   ~ 0
LCD_CS
Text Label 2695 7510 2    60   ~ 0
LCD_RST
$Comp
L oscil-rescue:GNDD #PWR037
U 1 1 587BFCD0
P 2490 7060
F 0 "#PWR037" H 2490 6810 50  0001 C CNN
F 1 "GNDD" H 2490 6910 50  0000 C CNN
F 2 "" H 2490 7060 50  0000 C CNN
F 3 "" H 2490 7060 50  0000 C CNN
	1    2490 7060
	1    0    0    -1  
$EndComp
$Comp
L power1:+5V #PWR038
U 1 1 587C0604
P 2580 6835
F 0 "#PWR038" H 2580 6685 50  0001 C CNN
F 1 "+5V" H 2580 6975 50  0000 C CNN
F 2 "" H 2580 6835 50  0000 C CNN
F 3 "" H 2580 6835 50  0000 C CNN
	1    2580 6835
	1    0    0    -1  
$EndComp
Text Label 20975 10860 2    60   ~ 0
LCD_RST
Text Label 20920 9590 2    60   ~ 0
LCD_D7
Text Label 20920 9490 2    60   ~ 0
LCD_D0
NoConn ~ 2375 6790
$Comp
L pinhead:PINHD-1X2 JP3
U 1 1 587C3CEA
P 12400 4555
F 0 "JP3" H 12150 4780 50  0000 L BNN
F 1 "PINHD-1X2" H 12150 4355 50  0000 L BNN
F 2 "Pin_Headers:Pin_Header_Straight_1x02" H 12400 4705 50  0001 C CNN
F 3 "" H 12400 4555 60  0001 C CNN
	1    12400 4555
	1    0    0    -1  
$EndComp
$Comp
L oscil-rescue:GNDD #PWR039
U 1 1 587C430B
P 12000 4725
F 0 "#PWR039" H 12000 4475 50  0001 C CNN
F 1 "GNDD" H 12000 4575 50  0000 C CNN
F 2 "" H 12000 4725 50  0000 C CNN
F 3 "" H 12000 4725 50  0000 C CNN
	1    12000 4725
	1    0    0    -1  
$EndComp
$Comp
L oscil-rescue:GNDD #PWR040
U 1 1 587C74B5
P 2240 10265
F 0 "#PWR040" H 2240 10015 50  0001 C CNN
F 1 "GNDD" H 2240 10115 50  0000 C CNN
F 2 "" H 2240 10265 50  0000 C CNN
F 3 "" H 2240 10265 50  0000 C CNN
	1    2240 10265
	1    0    0    -1  
$EndComp
$Comp
L oscil-rescue:GNDD #PWR041
U 1 1 587CDCD1
P 2560 6095
F 0 "#PWR041" H 2560 5845 50  0001 C CNN
F 1 "GNDD" H 2560 5945 50  0000 C CNN
F 2 "" H 2560 6095 50  0000 C CNN
F 3 "" H 2560 6095 50  0000 C CNN
	1    2560 6095
	1    0    0    -1  
$EndComp
$Comp
L oscil-rescue:GNDD #PWR042
U 1 1 587A8CE4
P 12080 5170
F 0 "#PWR042" H 12080 4920 50  0001 C CNN
F 1 "GNDD" H 12080 5020 50  0000 C CNN
F 2 "" H 12080 5170 50  0000 C CNN
F 3 "" H 12080 5170 50  0000 C CNN
	1    12080 5170
	1    0    0    -1  
$EndComp
$Comp
L oscil-rescue:GND-RESCUE-oscil #PWR043
U 1 1 587A952A
P 12285 5175
F 0 "#PWR043" H 12285 4925 50  0001 C CNN
F 1 "GND" H 12285 5025 50  0000 C CNN
F 2 "" H 12285 5175 50  0000 C CNN
F 3 "" H 12285 5175 50  0000 C CNN
	1    12285 5175
	1    0    0    -1  
$EndComp
NoConn ~ 1000 7375
NoConn ~ 1000 7440
NoConn ~ 1000 7505
NoConn ~ 1000 7570
$Comp
L oscil-rescue:GND-RESCUE-oscil #PWR044
U 1 1 587C98F0
P 5585 4885
F 0 "#PWR044" H 5585 4635 50  0001 C CNN
F 1 "GND" H 5585 4735 50  0000 C CNN
F 2 "" H 5585 4885 50  0000 C CNN
F 3 "" H 5585 4885 50  0000 C CNN
	1    5585 4885
	1    0    0    -1  
$EndComp
$Comp
L switch-tact:DTS-6 S2
U 1 1 587FF2FA
P 1900 9055
F 0 "S2" V 1615 8955 50  0000 L BNN
F 1 "DTS-6" V 1715 9180 50  0000 L BNN
F 2 "switch-tact:switch-tact-DTS-6" H 1900 9205 50  0001 C CNN
F 3 "" H 1900 9055 60  0001 C CNN
	1    1900 9055
	0    1    1    0   
$EndComp
$Comp
L switch-tact:DTS-6 S3
U 1 1 58800054
P 1925 9425
F 0 "S3" V 1640 9325 50  0000 L BNN
F 1 "DTS-6" V 1740 9550 50  0000 L BNN
F 2 "switch-tact:switch-tact-DTS-6" H 1925 9575 50  0001 C CNN
F 3 "" H 1925 9425 60  0001 C CNN
	1    1925 9425
	0    1    1    0   
$EndComp
$Comp
L switch-tact:DTS-6 S4
U 1 1 5880081A
P 1925 9795
F 0 "S4" V 1640 9695 50  0000 L BNN
F 1 "DTS-6" V 1740 9920 50  0000 L BNN
F 2 "switch-tact:switch-tact-DTS-6" H 1925 9945 50  0001 C CNN
F 3 "" H 1925 9795 60  0001 C CNN
	1    1925 9795
	0    1    1    0   
$EndComp
$Comp
L switch-tact:DTS-6 S5
U 1 1 58800FF0
P 1935 10165
F 0 "S5" V 1650 10065 50  0000 L BNN
F 1 "DTS-6" V 1750 10290 50  0000 L BNN
F 2 "switch-tact:switch-tact-DTS-6" H 1935 10315 50  0001 C CNN
F 3 "" H 1935 10165 60  0001 C CNN
	1    1935 10165
	0    1    1    0   
$EndComp
$Comp
L lt1054:LT1054 IC1
U 1 1 5885635D
P 13800 4780
F 0 "IC1" H 13660 4530 60  0000 C CNN
F 1 "LT1054" H 13740 5020 60  0000 C CNN
F 2 "Housings_SOIC:SOIC-8_3.9x4.9mm_Pitch1.27mm" H 13670 4640 60  0001 C CNN
F 3 "" H 13670 4640 60  0001 C CNN
	1    13800 4780
	1    0    0    -1  
$EndComp
$Comp
L power1:+5V #PWR045
U 1 1 58856855
P 14250 4660
F 0 "#PWR045" H 14250 4510 50  0001 C CNN
F 1 "+5V" H 14250 4800 50  0000 C CNN
F 2 "" H 14250 4660 50  0000 C CNN
F 3 "" H 14250 4660 50  0000 C CNN
	1    14250 4660
	1    0    0    -1  
$EndComp
$Comp
L oscil-rescue:GND-RESCUE-oscil #PWR046
U 1 1 58857D7E
P 13085 4865
F 0 "#PWR046" H 13085 4615 50  0001 C CNN
F 1 "GND" H 13085 4715 50  0000 C CNN
F 2 "" H 13085 4865 50  0000 C CNN
F 3 "" H 13085 4865 50  0000 C CNN
	1    13085 4865
	1    0    0    -1  
$EndComp
$Comp
L oscil-rescue:CP-RESCUE-oscil C5
U 1 1 58858A93
P 12830 4785
F 0 "C5" H 12855 4885 50  0000 L CNN
F 1 "100uF" H 12855 4685 50  0000 L CNN
F 2 "Capacitors_ThroughHole:C_Radial_D5_L6_P2.5" H 12868 4635 50  0001 C CNN
F 3 "" H 12830 4785 50  0000 C CNN
	1    12830 4785
	1    0    0    -1  
$EndComp
$Comp
L power1:-5V #PWR047
U 1 1 5885A378
P 14250 4900
F 0 "#PWR047" H 14250 5000 50  0001 C CNN
F 1 "-5V" H 14250 5050 50  0000 C CNN
F 2 "" H 14250 4900 50  0000 C CNN
F 3 "" H 14250 4900 50  0000 C CNN
	1    14250 4900
	-1   0    0    1   
$EndComp
$Comp
L oscil-rescue:CP-RESCUE-oscil C6
U 1 1 5885B633
P 14475 5045
F 0 "C6" H 14500 5145 50  0000 L CNN
F 1 "100uF" H 14500 4945 50  0000 L CNN
F 2 "Capacitors_ThroughHole:C_Radial_D5_L6_P2.5" H 14513 4895 50  0001 C CNN
F 3 "" H 14475 5045 50  0000 C CNN
	1    14475 5045
	1    0    0    1   
$EndComp
$Comp
L oscil-rescue:GND-RESCUE-oscil #PWR048
U 1 1 5885B814
P 14475 5195
F 0 "#PWR048" H 14475 4945 50  0001 C CNN
F 1 "GND" H 14475 5045 50  0000 C CNN
F 2 "" H 14475 5195 50  0000 C CNN
F 3 "" H 14475 5195 50  0000 C CNN
	1    14475 5195
	1    0    0    -1  
$EndComp
NoConn ~ 14250 4740
NoConn ~ 14250 4820
NoConn ~ 13350 4660
$Comp
L oscil-rescue:R-RESCUE-oscil R16
U 1 1 5885D897
P 10495 3525
F 0 "R16" V 10575 3525 50  0000 C CNN
F 1 "47k" V 10495 3525 50  0000 C CNN
F 2 "Resistors_SMD:R_0603_HandSoldering" V 10425 3525 50  0001 C CNN
F 3 "" H 10495 3525 50  0000 C CNN
	1    10495 3525
	1    0    0    -1  
$EndComp
$Comp
L oscil-rescue:C-RESCUE-oscil C19
U 1 1 58866044
P 9845 4380
F 0 "C19" H 9870 4480 50  0000 L CNN
F 1 "100nF" H 9870 4280 50  0000 L CNN
F 2 "Capacitors_SMD:C_0805_HandSoldering" H 9883 4230 50  0001 C CNN
F 3 "" H 9845 4380 50  0000 C CNN
	1    9845 4380
	1    0    0    -1  
$EndComp
Text Label 21450 8890 0    60   ~ 0
LCD_RD
$Comp
L device:DIODESCH D1
U 1 1 5887057A
P 6535 4955
F 0 "D1" H 6535 5055 40  0000 C CNN
F 1 "DIODESCH" H 6535 4855 40  0000 C CNN
F 2 "Diodes_SMD:SOD-123" H 6535 4955 60  0001 C CNN
F 3 "" H 6535 4955 60  0001 C CNN
	1    6535 4955
	0    -1   -1   0   
$EndComp
$Comp
L oscil-rescue:GND-RESCUE-oscil #PWR049
U 1 1 58870AD5
P 6535 5155
F 0 "#PWR049" H 6535 4905 50  0001 C CNN
F 1 "GND" H 6535 5005 50  0000 C CNN
F 2 "" H 6535 5155 50  0000 C CNN
F 3 "" H 6535 5155 50  0000 C CNN
	1    6535 5155
	1    0    0    -1  
$EndComp
$Comp
L device:ZENER D2
U 1 1 58871C15
P 6665 4955
F 0 "D2" H 6665 5055 50  0000 C CNN
F 1 "ZENER" H 6665 4855 40  0000 C CNN
F 2 "Diodes_ThroughHole:Diode_DO-35_SOD27_Horizontal_RM10" H 6665 4955 60  0001 C CNN
F 3 "" H 6665 4955 60  0001 C CNN
	1    6665 4955
	0    -1   -1   0   
$EndComp
$Comp
L oscil-rescue:GND-RESCUE-oscil #PWR050
U 1 1 58871E70
P 6665 5155
F 0 "#PWR050" H 6665 4905 50  0001 C CNN
F 1 "GND" H 6665 5005 50  0000 C CNN
F 2 "" H 6665 5155 50  0000 C CNN
F 3 "" H 6665 5155 50  0000 C CNN
	1    6665 5155
	1    0    0    -1  
$EndComp
Text Label 1460 9055 0    60   ~ 0
SW1
Text Label 1460 9425 0    60   ~ 0
SW2
Text Label 1450 9795 0    60   ~ 0
SW3
Text Label 1460 10005 0    60   ~ 0
SW4
Text Label 20920 9390 0    60   ~ 0
LCD_D1
Text Label 21915 9190 0    60   ~ 0
SW4
Text Label 21805 9090 0    60   ~ 0
SW3
Text Label 21675 8990 0    60   ~ 0
SW2
$Comp
L conn:USB_2 J1
U 1 1 5877AEA2
P 22225 9985
F 0 "J1" H 22150 10235 60  0000 C CNN
F 1 "USB_2" H 22275 9685 60  0001 C CNN
F 2 "mini_usb:con-usb-2-USB-M-S1" H 22225 9985 60  0001 C CNN
F 3 "" H 22225 9985 60  0001 C CNN
F 4 "VCC" H 22550 10135 50  0001 C CNN "VCC"
F 5 "D+" H 22525 10035 50  0001 C CNN "Data+"
F 6 "D-" H 22525 9935 50  0001 C CNN "Data-"
F 7 "GND" H 22550 9835 50  0001 C CNN "Ground"
	1    22225 9985
	-1   0    0    -1  
$EndComp
NoConn ~ 22025 10135
$Comp
L oscil-rescue:C-RESCUE-oscil C17
U 1 1 587C0EE9
P 6245 4985
F 0 "C17" H 6270 5085 50  0000 L CNN
F 1 "20pF" H 6270 4885 50  0000 L CNN
F 2 "Capacitors_SMD:C_0805_HandSoldering" H 6283 4835 50  0001 C CNN
F 3 "" H 6245 4985 50  0000 C CNN
	1    6245 4985
	1    0    0    -1  
$EndComp
NoConn ~ 5205 4800
NoConn ~ 5205 5040
$Comp
L oscil-rescue:R-RESCUE-oscil R8
U 1 1 5878F705
P 10305 3530
F 0 "R8" V 10385 3530 50  0000 C CNN
F 1 "1k" V 10305 3530 50  0000 C CNN
F 2 "Resistors_SMD:R_0603_HandSoldering" V 10235 3530 50  0001 C CNN
F 3 "" H 10305 3530 50  0000 C CNN
	1    10305 3530
	1    0    0    -1  
$EndComp
$Comp
L oscil-rescue:+3.3V-RESCUE-oscil #PWR051
U 1 1 58E4051C
P 2455 6570
F 0 "#PWR051" H 2455 6420 50  0001 C CNN
F 1 "+3.3V" H 2455 6710 50  0000 C CNN
F 2 "" H 2455 6570 50  0000 C CNN
F 3 "" H 2455 6570 50  0000 C CNN
	1    2455 6570
	1    0    0    -1  
$EndComp
NoConn ~ 2375 6985
NoConn ~ 5015 6555
NoConn ~ 14485 3585
Wire Wire Line
	12995 10790 13095 10790
Connection ~ 13095 10790
Connection ~ 13195 10790
Wire Wire Line
	13135 11075 13135 10790
Connection ~ 13135 10790
Wire Wire Line
	12995 7190 13050 7190
Connection ~ 13095 7190
Wire Wire Line
	13080 6750 13080 7035
Wire Wire Line
	13080 7035 13050 7035
Wire Wire Line
	13050 7035 13050 7190
Connection ~ 13050 7190
Wire Wire Line
	5895 7990 5610 7990
Wire Wire Line
	5610 7990 5610 7955
Wire Wire Line
	5895 8190 5460 8190
Wire Wire Line
	5460 8190 5460 8035
Wire Wire Line
	5460 8035 5250 8035
Wire Wire Line
	5895 8290 5500 8290
Wire Wire Line
	5500 8290 5500 8335
Wire Wire Line
	5500 8335 5250 8335
Wire Wire Line
	5125 8035 5125 8020
Connection ~ 5250 8035
Wire Wire Line
	5125 8350 5250 8350
Wire Wire Line
	5250 8350 5250 8335
Connection ~ 5250 8335
Wire Wire Line
	4825 8020 4825 8170
Wire Wire Line
	4825 8170 4655 8170
Connection ~ 4825 8170
Wire Wire Line
	12665 3735 12950 3735
Wire Wire Line
	14485 3735 14595 3735
Wire Wire Line
	14770 3735 14770 3720
Wire Wire Line
	13025 3785 13025 3735
Connection ~ 13025 3735
Wire Wire Line
	14595 3820 14595 3735
Connection ~ 14595 3735
Wire Wire Line
	3895 4320 3400 4320
Wire Wire Line
	3400 4320 3400 4720
Wire Bus Line
	3795 6935 4300 6935
Wire Bus Line
	4300 6935 4300 8745
Wire Wire Line
	5475 4195 5205 4195
Wire Wire Line
	5205 4195 5205 4320
Wire Wire Line
	5205 4400 5475 4400
Wire Wire Line
	5475 4400 5475 4195
Connection ~ 5475 4195
Wire Wire Line
	5205 4480 5620 4480
Wire Wire Line
	5620 4480 5620 4270
Wire Wire Line
	5620 4270 5815 4270
Wire Wire Line
	5815 4270 5815 4265
Wire Bus Line
	4300 8745 5795 8745
Wire Wire Line
	5205 5360 5490 5360
Wire Wire Line
	5845 5360 5845 5355
Wire Wire Line
	3895 5280 3530 5280
Wire Wire Line
	3530 5280 3530 5295
Wire Wire Line
	5205 4640 5205 4680
Wire Wire Line
	5280 4680 5205 4680
Connection ~ 5205 4680
Wire Wire Line
	6720 4330 6720 4560
Wire Wire Line
	6720 4560 6655 4560
Wire Wire Line
	5205 4560 6245 4560
Wire Wire Line
	7645 4775 7645 4815
Wire Wire Line
	7645 4475 7870 4475
Wire Wire Line
	7870 4475 7870 4495
Wire Wire Line
	7320 4430 7415 4430
Wire Wire Line
	7415 4430 7415 4815
Wire Wire Line
	7415 4815 7645 4815
Connection ~ 7645 4815
Wire Wire Line
	6720 4940 6915 4940
Connection ~ 6720 4560
Wire Wire Line
	7415 4940 7215 4940
Connection ~ 7415 4815
Wire Wire Line
	20495 9690 20925 9690
Connection ~ 7645 4475
Wire Wire Line
	7320 4230 7490 4230
Wire Wire Line
	7490 4230 7490 4160
Wire Wire Line
	7645 3845 8070 3845
Wire Wire Line
	8070 3845 8070 4350
Wire Wire Line
	8670 4450 8810 4450
Wire Wire Line
	8810 4450 8810 4895
Wire Wire Line
	8810 4895 8070 4895
Connection ~ 8070 4350
Wire Wire Line
	20495 9790 20935 9790
Wire Wire Line
	20935 9790 20935 9785
Wire Wire Line
	20495 10190 20910 10190
Wire Wire Line
	20910 10190 20910 10350
Wire Wire Line
	20495 10290 20840 10290
Wire Wire Line
	20840 10290 20840 10450
Wire Wire Line
	20840 10450 20910 10450
Wire Wire Line
	11625 3550 11625 3515
Wire Wire Line
	11475 3315 10935 3315
Wire Wire Line
	10935 3315 10935 3320
Wire Wire Line
	8670 3320 10305 3320
Wire Wire Line
	8670 3320 8670 4250
Wire Wire Line
	10305 3680 10305 3805
Wire Wire Line
	10305 4535 10305 4515
Wire Wire Line
	9515 4155 9040 4155
Wire Wire Line
	9815 4155 9845 4155
Wire Wire Line
	20495 9290 20805 9290
Wire Wire Line
	22025 10035 21920 10035
Wire Wire Line
	21920 10115 21920 10035
Wire Wire Line
	21920 9590 21920 9525
Wire Wire Line
	22025 9835 22025 9610
Wire Wire Line
	22025 9610 22130 9610
Wire Wire Line
	22130 9610 22130 9545
Wire Wire Line
	21860 9935 21860 10020
Wire Wire Line
	21860 9935 22025 9935
Connection ~ 21920 10035
Wire Wire Line
	21860 10020 21740 10020
Wire Wire Line
	21735 10115 21920 10115
Wire Wire Line
	13295 7190 13720 7190
Wire Wire Line
	13720 7190 13720 6745
Wire Wire Line
	13720 6745 13895 6745
Connection ~ 13895 6745
Connection ~ 13295 7190
Connection ~ 12950 3735
Wire Wire Line
	14905 3735 14905 3835
Connection ~ 14770 3735
Wire Wire Line
	2350 5795 2560 5795
Connection ~ 2560 5795
Wire Wire Line
	2350 6095 2560 6095
Connection ~ 2560 6095
Wire Wire Line
	5085 7590 5895 7590
Wire Wire Line
	4635 7230 5085 7230
Wire Wire Line
	5085 6455 5085 7230
Wire Wire Line
	5315 7670 5305 7670
Wire Wire Line
	5305 7670 5305 7755
Wire Wire Line
	5615 7670 5895 7670
Wire Wire Line
	5895 7670 5895 7790
Connection ~ 5085 7230
Wire Bus Line
	5795 8590 4905 8590
Wire Bus Line
	4905 8590 4905 10795
Wire Wire Line
	5895 8690 5580 8690
Wire Wire Line
	2375 7250 2690 7250
Wire Wire Line
	2375 7315 2690 7315
Wire Wire Line
	2375 7380 2690 7380
Wire Wire Line
	2375 7445 2690 7445
Wire Wire Line
	2375 7510 2695 7510
Wire Wire Line
	2375 6920 2580 6920
Wire Wire Line
	2580 6920 2580 6835
Wire Wire Line
	20495 10390 20495 10860
Wire Wire Line
	20495 10860 20975 10860
Wire Wire Line
	20495 9590 20920 9590
Wire Wire Line
	20495 9490 20920 9490
Wire Wire Line
	20495 9390 20920 9390
Wire Wire Line
	12300 4555 12000 4555
Wire Wire Line
	12000 4455 12000 4555
Wire Wire Line
	12300 4455 12000 4455
Connection ~ 12000 4555
Wire Wire Line
	2100 9155 2240 9155
Wire Wire Line
	2240 9525 2125 9525
Wire Wire Line
	2125 9895 2240 9895
Connection ~ 2240 9520
Connection ~ 2240 9895
Wire Wire Line
	20495 9190 21915 9190
Wire Wire Line
	20495 9090 21805 9090
Wire Wire Line
	20495 8990 21675 8990
Wire Wire Line
	20495 8890 21450 8890
Wire Wire Line
	12080 5170 12285 5170
Wire Wire Line
	12285 5170 12285 5175
Wire Wire Line
	6245 4835 6245 4720
Connection ~ 6245 4560
Wire Wire Line
	5585 4885 5585 4680
Wire Wire Line
	5585 4680 5580 4680
Wire Wire Line
	20495 9890 20935 9890
Wire Wire Line
	20935 9890 20935 9885
Wire Wire Line
	13350 4820 13085 4820
Wire Wire Line
	13085 4820 13085 4865
Wire Wire Line
	13350 4900 13350 5105
Wire Wire Line
	13350 5105 12830 5105
Wire Wire Line
	12830 5105 12830 4935
Wire Wire Line
	13345 4735 13070 4735
Wire Wire Line
	13070 4735 13070 4635
Wire Wire Line
	13070 4635 12830 4635
Wire Wire Line
	14250 4900 14475 4900
Wire Wire Line
	14475 4900 14475 4895
Connection ~ 14250 4900
Wire Wire Line
	13350 4740 13345 4740
Wire Wire Line
	13345 4740 13345 4735
Wire Wire Line
	10495 3375 10495 3320
Connection ~ 10495 3320
Wire Wire Line
	10495 3675 10495 4515
Wire Wire Line
	10495 4515 10305 4515
Connection ~ 10305 4515
Wire Wire Line
	9845 4530 10305 4530
Wire Wire Line
	10305 4530 10305 4515
Wire Wire Line
	9845 4230 9845 4155
Connection ~ 9845 4155
Wire Wire Line
	6535 4755 6535 4720
Wire Wire Line
	6245 4720 6535 4720
Connection ~ 6245 4720
Wire Wire Line
	6665 4720 6665 4755
Connection ~ 6535 4720
Wire Wire Line
	1735 10165 1735 10155
Wire Wire Line
	1735 10005 1460 10005
Wire Wire Line
	1725 9795 1450 9795
Wire Wire Line
	1725 9425 1460 9425
Wire Wire Line
	1700 9055 1460 9055
Wire Wire Line
	1700 9155 1700 9055
Wire Wire Line
	1725 9525 1725 9425
Wire Wire Line
	1725 9795 1725 9895
Wire Wire Line
	1730 10265 1730 10155
Wire Wire Line
	1730 10155 1735 10155
Connection ~ 1735 10155
Connection ~ 1725 9795
Connection ~ 1700 9055
Connection ~ 1725 9425
Wire Wire Line
	5315 5115 5315 5120
Connection ~ 5315 5120
Connection ~ 5490 5360
Wire Wire Line
	5490 5200 5490 5360
Wire Wire Line
	5205 5200 5490 5200
Connection ~ 10305 3320
Wire Wire Line
	10305 3380 10305 3320
Wire Wire Line
	2375 6855 2455 6855
Wire Wire Line
	2455 6855 2455 6570
Wire Wire Line
	2375 7050 2490 7050
Wire Wire Line
	2490 7050 2490 7060
Wire Wire Line
	4615 6455 4615 6555
Wire Wire Line
	5085 6455 5015 6455
Connection ~ 4615 6555
Wire Wire Line
	12665 3735 12665 3785
Wire Wire Line
	12950 3560 12950 3735
Wire Wire Line
	7645 3845 7645 4160
Wire Wire Line
	7490 4160 7645 4160
Connection ~ 7645 4160
Wire Wire Line
	21735 10205 21735 10115
Wire Wire Line
	20495 9990 20725 9990
Wire Wire Line
	20725 9990 20725 10015
Wire Wire Line
	20725 10015 21440 10015
Wire Wire Line
	21440 10015 21440 10020
Wire Wire Line
	20495 10090 20790 10090
Wire Wire Line
	20790 10090 20790 10125
Wire Wire Line
	20790 10125 21435 10125
Wire Wire Line
	21435 10125 21435 10205
Wire Wire Line
	1730 10265 1735 10265
Wire Wire Line
	2240 10265 2135 10265
NoConn ~ 2135 10165
NoConn ~ 2125 9795
NoConn ~ 2125 9425
NoConn ~ 2100 9055
Connection ~ 2240 10265
Wire Wire Line
	3895 5360 3895 5605
Wire Wire Line
	3895 5605 3615 5605
Wire Wire Line
	5315 5280 5205 5280
Wire Wire Line
	5205 5120 5315 5120
Wire Wire Line
	5620 5115 5315 5115
Wire Wire Line
	13095 10790 13135 10790
Wire Wire Line
	13195 10790 13295 10790
Wire Wire Line
	13135 10790 13195 10790
Wire Wire Line
	13095 7190 13195 7190
Wire Wire Line
	13050 7190 13095 7190
Wire Wire Line
	5250 8035 5125 8035
Wire Wire Line
	4825 8170 4825 8350
Wire Wire Line
	13025 3735 13085 3735
Wire Wire Line
	14595 3735 14770 3735
Wire Wire Line
	5205 4680 5205 4720
Wire Wire Line
	7645 4815 7645 4865
Wire Wire Line
	6720 4560 6720 4940
Wire Wire Line
	7415 4815 7415 4940
Wire Wire Line
	8070 4350 8070 4895
Wire Wire Line
	21920 10035 21920 9890
Wire Wire Line
	13895 6745 14185 6745
Wire Wire Line
	12950 3735 13025 3735
Wire Wire Line
	14770 3735 14905 3735
Wire Wire Line
	2560 5795 2770 5795
Wire Wire Line
	2560 6095 2770 6095
Wire Wire Line
	5085 7230 5085 7590
Wire Wire Line
	12000 4555 12000 4725
Wire Wire Line
	2240 9895 2240 10265
Wire Wire Line
	6245 4560 6355 4560
Wire Wire Line
	10495 3320 10635 3320
Wire Wire Line
	10305 4515 10305 4505
Wire Wire Line
	9845 4155 9855 4155
Wire Wire Line
	6245 4720 6245 4560
Wire Wire Line
	6535 4720 6665 4720
Wire Wire Line
	1735 10155 1735 10005
Wire Wire Line
	5315 5120 5315 5280
Wire Wire Line
	5490 5360 5845 5360
Wire Wire Line
	10305 3320 10495 3320
Wire Wire Line
	7645 4160 7645 4175
Wire Bus Line
	900  10895 5795 10895
Wire Bus Line
	5795 8390 5795 8590
Wire Wire Line
	5570 10390 5895 10390
Wire Wire Line
	2240 9155 2240 9895
Wire Bus Line
	5795 9990 5795 10895
Wire Bus Line
	3795 4500 3795 6935
Wire Bus Line
	5795 8745 5795 9690
Wire Bus Line
	900  6690 900  10895
$EndSCHEMATC
